<?xml version="1.0" encoding="UTF-8"?>
<foxml:digitalObject xmlns:foxml="info:fedora/fedora-system:def/foxml#"
                     xmlns:xsi="http://www.w3.org/2001/XMLSchema-instance"
                     VERSION="1.1"
                     xsi:schemaLocation="info:fedora/fedora-system:def/foxml# http://www.fedora.info/definitions/1/0/foxml1-1.xsd"
                     PID="uk-ac-man-scw:ma1689">
   <foxml:objectProperties>
      <foxml:property NAME="info:fedora/fedora-system:def/model#state" VALUE="Active"/>
   </foxml:objectProperties>
   <foxml:datastream CONTROL_GROUP="X" ID="MODS" STATE="A" VERSIONABLE="true">
      <foxml:datastreamVersion CREATED="2015-08-03T09:54:14.025Z"
                               ID="MODS.0"
                               LABEL="Metadata Object Description Schema record"
                               MIMETYPE="text/xml"
                               SIZE="3550">
         <foxml:xmlContent>
            <mods:mods xmlns:ev="http://www.w3.org/2001/xml-events"
                       xmlns:exf="http://www.exforms.org/exf/1-0"
                       xmlns:f="http://orbeon.org/oxf/xml/formatting"
                       xmlns:fr="http://orbeon.org/oxf/xml/form-runner"
                       xmlns:mods="http://www.loc.gov/mods/v3"
                       xmlns:widget="http://orbeon.org/oxf/xml/widget"
                       xmlns:xforms="http://www.w3.org/2002/xforms"
                       xmlns:xhtml="http://www.w3.org/1999/xhtml"
                       xmlns:xi="http://www.w3.org/2001/XInclude"
                       xmlns:xs="http://www.w3.org/2001/XMLSchema"
                       xmlns:xxforms="http://orbeon.org/oxf/xml/xforms"
                       xmlns:xxi="http://orbeon.org/oxf/xml/xinclude"
                       version="3.3">
               <mods:abstract>In this chapter we explore the role and importance of HRD within the context of the contemporary construction organization. We examine this in relation to four key questions. Firstly, we explore what HRD is, examining the genesis of the concept and its th</mods:abstract>
               <mods:genre authority="local" type="content-type">book-contribution</mods:genre>
               <mods:genre type="version">Human Resource Development: Rhetoric, Reality and Opportunities</mods:genre>
               <mods:note type="authors">ARJ Dainty, Paul Chan</mods:note>
               <mods:note type="editors"/>
               <mods:originInfo>
                  <mods:dateIssued encoding="iso8601">2011-01</mods:dateIssued>
                  <mods:publisher>Taylor &amp; Francis</mods:publisher>
               </mods:originInfo>
               <mods:recordInfo>
                  <mods:recordCreationDate encoding="iso8601">2015-08-03T09:54:14.025+01:00</mods:recordCreationDate>
                  <mods:recordContentSource>Manchester eScholar</mods:recordContentSource>
               </mods:recordInfo>
               <mods:relatedItem type="host">
                  <mods:identifier type="isbn">978-0-415-57261-3</mods:identifier>
                  <mods:titleInfo>
                     <mods:title>Organization management in construction</mods:title>
                  </mods:titleInfo>
                  <mods:originInfo>
                     <mods:edition/>
                  </mods:originInfo>
               </mods:relatedItem>
               <mods:relatedItem type="preceding">
                  <mods:identifier type="uri">http://www.taylorandfrancis.com/books/details/9780415572613/</mods:identifier>
               </mods:relatedItem>
               <mods:titleInfo>
                  <mods:title>Human Resource Development: Rhetoric, Reality and Opportunities</mods:title>
               </mods:titleInfo>
               <mods:typeOfResource>text</mods:typeOfResource>
            </mods:mods>
         </foxml:xmlContent>
      </foxml:datastreamVersion>
   </foxml:datastream>
   <foxml:datastream CONTROL_GROUP="X" ID="RELS-EXT" STATE="A" VERSIONABLE="false">
      <foxml:datastreamVersion CREATED="2015-08-03T09:54:14.025Z"
                               ID="RELS-EXT.1"
                               LABEL="Relationships"
                               MIMETYPE="text/xml"
                               SIZE="920">
         <foxml:xmlContent>
            <rdf:RDF xmlns:esc-rel="http://www.escholar.manchester.ac.uk/esc/rel/v1#"
                     xmlns:rdf="http://www.w3.org/1999/02/22-rdf-syntax-ns#">
               <rdf:Description rdf:about="info:fedora/uk-ac-man-scw:ma1689">
                  <esc-rel:isBelongsTo rdf:resource="info:fedora/uk-ac-man-per:abcde39"/>
                  <esc-rel:isBelongsTo rdf:resource="info:fedora/uk-ac-man-per:82170"/>
                  <esc-rel:isBelongsToOrg rdf:resource="info:fedora/uk-ac-man-org:1"/>
                  <esc-rel:isBelongsToOrg rdf:resource="info:fedora/uk-ac-man-org:41"/>
                  <esc-rel:isBelongsToOrg rdf:resource="info:fedora/uk-ac-man-org:347"/>
                  <esc-rel:isCreatedBy rdf:resource="info:fedora/uk-ac-man-per:admin"/>
                  <esc-rel:isLastModifiedBy rdf:resource="info:fedora/uk-ac-man-per:admin"/>
                  <esc-rel:isDerivationOf rdf:resource="info:fedora/uk-ac-man-scw:base"/>
                  <esc-rel:isOfContenttype rdf:resource="info:fedora/uk-ac-man-con:3"/>
               </rdf:Description>
            </rdf:RDF>
         </foxml:xmlContent>
      </foxml:datastreamVersion>
   </foxml:datastream>
</foxml:digitalObject>
