<?xml version="1.0" encoding="UTF-8"?>
<foxml:digitalObject xmlns:foxml="info:fedora/fedora-system:def/foxml#"
                     xmlns:xsi="http://www.w3.org/2001/XMLSchema-instance"
                     VERSION="1.1"
                     xsi:schemaLocation="info:fedora/fedora-system:def/foxml# http://www.fedora.info/definitions/1/0/foxml1-1.xsd"
                     PID="uk-ac-man-scw:jp002">
   <foxml:objectProperties>
      <foxml:property NAME="info:fedora/fedora-system:def/model#state" VALUE="Active"/>
   </foxml:objectProperties>
   <foxml:datastream CONTROL_GROUP="X" ID="MODS" STATE="A" VERSIONABLE="true">
      <foxml:datastreamVersion CREATED="2016-04-01T09:49:01.497Z"
                               ID="MODS.0"
                               LABEL="Metadata Object Description Schema record"
                               MIMETYPE="text/xml"
                               SIZE="3241">
         <foxml:xmlContent>
            <mods:mods xmlns:ev="http://www.w3.org/2001/xml-events"
                       xmlns:exf="http://www.exforms.org/exf/1-0"
                       xmlns:f="http://orbeon.org/oxf/xml/formatting"
                       xmlns:fr="http://orbeon.org/oxf/xml/form-runner"
                       xmlns:mods="http://www.loc.gov/mods/v3"
                       xmlns:widget="http://orbeon.org/oxf/xml/widget"
                       xmlns:xforms="http://www.w3.org/2002/xforms"
                       xmlns:xhtml="http://www.w3.org/1999/xhtml"
                       xmlns:xi="http://www.w3.org/2001/XInclude"
                       xmlns:xs="http://www.w3.org/2001/XMLSchema"
                       xmlns:xxforms="http://orbeon.org/oxf/xml/xforms"
                       xmlns:xxi="http://orbeon.org/oxf/xml/xinclude"
                       version="3.3">
               <mods:abstract>Mr FUKADA Tsunetaro talks about his childhood and education in Shiga between 1938 and 1945. 浅野目憲一氏は１９３３年から１９４５年の山形県での子供時代と教育について語っている。深田恒太郎氏は１９３８年から１９４５年の滋賀県での子供時代と教育について語っている。</mods:abstract>
               <mods:genre authority="local" type="content-type">composition</mods:genre>
               <mods:genre type="version">Sound recording</mods:genre>
               <mods:language>
                  <mods:languageTerm authority="iso639-3" type="code">eng</mods:languageTerm>
               </mods:language>
               <mods:note type="general">There is only one interview with Mr Fukada.</mods:note>
               <mods:note type="authors">Dr Peter CAVE ()</mods:note>
               <mods:originInfo>
                  <mods:dateIssued encoding="iso8601">24-10-2014</mods:dateIssued>
                  <mods:place>
                     <mods:placeTerm>Manchester, UK</mods:placeTerm>
                  </mods:place>
                  <mods:publisher>Manchester University</mods:publisher>
               </mods:originInfo>
               <mods:recordInfo>
                  <mods:recordCreationDate encoding="iso8601">2016-04-01T09:49:01.497+01:00</mods:recordCreationDate>
                  <mods:recordContentSource>Manchester eScholar</mods:recordContentSource>
               </mods:recordInfo>
               <mods:relatedItem type="host"/>
               <mods:relatedItem type="otherFormat">
                  <mods:note type="performers">Mr FUKADA Tsunetaro (male, born 1938) 深田恒太郎氏氏（男性・1938年生まれ）</mods:note>
                  <mods:originInfo>
                     <mods:dateOther encoding="iso8601">24-10-2014</mods:dateOther>
                     <mods:place>
                        <mods:placeTerm>Minami-Ōgaya shiryōshitsu, Seta, Otsu, Shiga prefecture</mods:placeTerm>
                     </mods:place>
                  </mods:originInfo>
                  <mods:titleInfo>
                     <mods:title>CHILDHOOD, EDUCATION AND YOUTH IN JAPAN, 1925-1945</mods:title>
                  </mods:titleInfo>
               </mods:relatedItem>
               <mods:relatedItem type="constituent">
                  <mods:physicalDescription>
                     <mods:extent>1</mods:extent>
                  </mods:physicalDescription>
               </mods:relatedItem>
               <mods:subject>
                  <mods:topic>1925-1945; CHILDHOOD; EDUCATION; JAPAN; YOUTH</mods:topic>
               </mods:subject>
               <mods:titleInfo>
                  <mods:title>CHILDHOOD, EDUCATION AND YOUTH IN JAPAN, 1925-1945</mods:title>
               </mods:titleInfo>
               <mods:titleInfo type="translated" xml:lang="jpn">
                  <mods:title>子供・青年の生活と教育（１９２５年～１９４５年）</mods:title>
               </mods:titleInfo>
               <mods:typeOfResource>sound recording</mods:typeOfResource>
            </mods:mods>
         </foxml:xmlContent>
      </foxml:datastreamVersion>
   </foxml:datastream>
   <foxml:datastream CONTROL_GROUP="M"
                     STATE="A"
                     VERSIONABLE="true"
                     ID="IJCEY3-Fukada-Tsunetaro-Seta-24_10_2014.m4a">
      <foxml:datastreamVersion CREATED="2016-04-01T09:49:01.497Z"
                               ID="IJCEY3-Fukada-Tsunetaro-Seta-24_10_2014.m4a.0"
                               LABEL="IJCEY3-Fukada-Tsunetaro-Seta-24_10_2014"
                               MIMETYPE="audio/m4a">
         <foxml:contentLocation REF="http://localhost/uploaded/japan/IJCEY3-Fukada-Tsunetaro-Seta-24_10_2014.m4a"
                                TYPE="URL"/>
      </foxml:datastreamVersion>
   </foxml:datastream>
   <foxml:datastream CONTROL_GROUP="M"
                     STATE="A"
                     VERSIONABLE="true"
                     ID="IJCEY3-Fukada-Tsunetaro-Seta-24_10_2014.ogg">
      <foxml:datastreamVersion CREATED="2016-04-01T09:49:01.497Z"
                               ID="IJCEY3-Fukada-Tsunetaro-Seta-24_10_2014.ogg.0"
                               LABEL="IJCEY3-Fukada-Tsunetaro-Seta-24_10_2014"
                               MIMETYPE="audio/ogg">
         <foxml:contentLocation REF="http://localhost/uploaded/japan/IJCEY3-Fukada-Tsunetaro-Seta-24_10_2014.ogg"
                                TYPE="URL"/>
      </foxml:datastreamVersion>
   </foxml:datastream>
   <foxml:datastream CONTROL_GROUP="M"
                     STATE="A"
                     VERSIONABLE="true"
                     ID="Fukada-Tsunetaro-Interview-Summary.pdf">
      <foxml:datastreamVersion CREATED="2016-04-01T09:49:01.497Z"
                               ID="Fukada-Tsunetaro-Interview-Summary.pdf.0"
                               LABEL="Fukada-Tsunetaro-Interview-Summary"
                               MIMETYPE="application/pdf">
         <foxml:contentLocation REF="http://localhost/uploaded/japan/Fukada-Tsunetaro-Interview-Summary.pdf"
                                TYPE="URL"/>
      </foxml:datastreamVersion>
   </foxml:datastream>
   <foxml:datastream CONTROL_GROUP="X" ID="RELS-EXT" STATE="A" VERSIONABLE="false">
      <foxml:datastreamVersion CREATED="2016-04-01T09:49:01.497Z"
                               ID="RELS-EXT.1"
                               LABEL="Relationships"
                               MIMETYPE="text/xml"
                               SIZE="973">
         <foxml:xmlContent>
            <rdf:RDF xmlns:esc-rel="http://www.uat-escholar.manchester.ac.uk/esc/rel/v1#"
                     xmlns:rdf="http://www.w3.org/1999/02/22-rdf-syntax-ns#">
               <rdf:Description rdf:about="info:fedora/uk-ac-man-scw:jp002">
                  <esc-rel:isBelongsTo rdf:resource="info:fedora/uk-ac-man-per:abcde51"/>
                  <esc-rel:isCreatedBy rdf:resource="info:fedora/uk-ac-man-per:admin"/>
                  <esc-rel:isLastModifiedBy rdf:resource="info:fedora/uk-ac-man-per:admin"/>
                  <esc-rel:isDerivationOf rdf:resource="info:fedora/uk-ac-man-scw:base"/>
                  <esc-rel:isOfContenttype rdf:resource="info:fedora/uk-ac-man-con:7"/>
               </rdf:Description>
            </rdf:RDF>
         </foxml:xmlContent>
      </foxml:datastreamVersion>
   </foxml:datastream>
</foxml:digitalObject>
