<?xml version="1.0" encoding="UTF-8"?>
<foxml:digitalObject xmlns:foxml="info:fedora/fedora-system:def/foxml#"
                     VERSION="1.1"
                     PID="uk-ac-man-scw:ma1617">
   <foxml:objectProperties>
      <foxml:property NAME="info:fedora/fedora-system:def/model#state" VALUE="Active"/>
   </foxml:objectProperties>
   <foxml:datastream CONTROL_GROUP="X" ID="MODS" STATE="A" VERSIONABLE="true">
      <foxml:datastreamVersion CREATED="2015-06-03T13:22:39.665Z"
                               ID="MODS.0"
                               LABEL="Metadata Object Description Schema record"
                               MIMETYPE="text/xml"
                               SIZE="3550">
         <foxml:xmlContent>
            <mods:mods xmlns:mods="http://www.loc.gov/mods/v3"
                       xmlns:xsi="http://www.w3.org/2001/XMLSchema-instance"
                       version="3.3"
                       xsi:schemaLocation="http://www.loc.gov/mods/v3 http://www.loc.gov/standards/mods/v3/mods-3-3.xsd">
               <mods:abstract>Although the Construction Industry has embraced Information Technology (IT) to improve its performance, it is argued that IT investments are still predominantly sporadic and inward looking. This is happening in spite of the availability of proven technolo</mods:abstract>
               <mods:genre authority="local" type="content-type">conference-contribution</mods:genre>
               <mods:note type="authors">Eric Lou, JS Goulding, M Alshawi</mods:note>
               <mods:note type="editors"/>
               <mods:originInfo>
                  <mods:dateIssued encoding="iso8601">2014-03-12</mods:dateIssued>
               </mods:originInfo>
               <mods:recordInfo>
                  <mods:recordCreationDate encoding="iso8601">2015-06-03T13:22:39.665+01:00</mods:recordCreationDate>
                  <mods:recordContentSource>Manchester eScholar</mods:recordContentSource>
               </mods:recordInfo>
               <mods:relatedItem type="host">
                  <mods:identifier type="issn"/>
                  <mods:titleInfo>
                     <mods:title>Achieving IT-Based Sustainable Competitive Advantage in Construction: Organisational Soft Issues</mods:title>
                  </mods:titleInfo>
                  <mods:part>
                     <mods:extent unit="page">
                        <mods:start/>
                        <mods:end/>
                        <mods:total>0</mods:total>
                        <mods:list/>
                     </mods:extent>
                  </mods:part>
                  <mods:relatedItem type="host">
                     <mods:titleInfo>
                        <mods:title>The International Conference on Computing in Civil and Building Engineering (ICCCBE), Nottingham, UK</mods:title>
                     </mods:titleInfo>
                     <mods:originInfo>
                        <mods:dateOther encoding="iso8601" point="start">2010-06</mods:dateOther>
                     </mods:originInfo>
                  </mods:relatedItem>
               </mods:relatedItem>
               <mods:relatedItem type="preceding">
                  <mods:identifier type="uri"/>
               </mods:relatedItem>
               <mods:titleInfo>
                  <mods:title>Achieving IT-Based Sustainable Competitive Advantage in Construction: Organisational Soft Issues</mods:title>
               </mods:titleInfo>
               <mods:typeOfResource>text</mods:typeOfResource>
            </mods:mods>
         </foxml:xmlContent>
      </foxml:datastreamVersion>
   </foxml:datastream>
   <foxml:datastream CONTROL_GROUP="X" ID="RELS-EXT" STATE="A" VERSIONABLE="false">
      <foxml:datastreamVersion CREATED="2015-06-03T13:22:39.665Z"
                               ID="RELS-EXT.1"
                               LABEL="Relationships"
                               MIMETYPE="text/xml"
                               SIZE="920">
         <foxml:xmlContent>
            <rdf:RDF xmlns:esc-rel="http://www.escholar.manchester.ac.uk/esc/rel/v1#"
                     xmlns:rdf="http://www.w3.org/1999/02/22-rdf-syntax-ns#">
               <rdf:Description rdf:about="info:fedora/uk-ac-man-scw:ma1617">
                  <esc-rel:isBelongsTo rdf:resource="info:fedora/uk-ac-man-per:133291"/>
                  <esc-rel:isBelongsToOrg rdf:resource="info:fedora/uk-ac-man-org:1"/>
                  <esc-rel:isBelongsToOrg rdf:resource="info:fedora/uk-ac-man-org:41"/>
                  <esc-rel:isBelongsToOrg rdf:resource="info:fedora/uk-ac-man-org:347"/>
                  <esc-rel:isCreatedBy rdf:resource="info:fedora/uk-ac-man-per:admin"/>
                  <esc-rel:isLastModifiedBy rdf:resource="info:fedora/uk-ac-man-per:admin"/>
                  <esc-rel:isDerivationOf rdf:resource="info:fedora/uk-ac-man-scw:base"/>
                  <esc-rel:isOfContenttype rdf:resource="info:fedora/uk-ac-man-con:2"/>
               </rdf:Description>
            </rdf:RDF>
         </foxml:xmlContent>
      </foxml:datastreamVersion>
   </foxml:datastream>
</foxml:digitalObject>
