<?xml version="1.0" encoding="UTF-8"?>
<foxml:digitalObject xmlns:foxml="info:fedora/fedora-system:def/foxml#"
                     VERSION="1.1"
                     PID="uk-ac-man-scw:ma1605">
   <foxml:objectProperties>
      <foxml:property NAME="info:fedora/fedora-system:def/model#state" VALUE="Active"/>
   </foxml:objectProperties>
   <foxml:datastream CONTROL_GROUP="X" ID="MODS" STATE="A" VERSIONABLE="true">
      <foxml:datastreamVersion CREATED="2015-06-03T13:22:39.665Z"
                               ID="MODS.0"
                               LABEL="Metadata Object Description Schema record"
                               MIMETYPE="text/xml"
                               SIZE="3550">
         <foxml:xmlContent>
            <mods:mods xmlns:mods="http://www.loc.gov/mods/v3"
                       xmlns:xsi="http://www.w3.org/2001/XMLSchema-instance"
                       version="3.3"
                       xsi:schemaLocation="http://www.loc.gov/mods/v3 http://www.loc.gov/standards/mods/v3/mods-3-3.xsd">
               <mods:abstract>The UK construction industry over the years has invested heavily in IT to be an integral part of its core business. However, there are evidences to indicate that the investments have repeatedly and systematically failed to deliver the anticipated benefits</mods:abstract>
               <mods:genre authority="local" type="content-type">conference-contribution</mods:genre>
               <mods:note type="authors">Eric Lou</mods:note>
               <mods:note type="editors"/>
               <mods:originInfo>
                  <mods:dateIssued encoding="iso8601">2014-03-11</mods:dateIssued>
               </mods:originInfo>
               <mods:recordInfo>
                  <mods:recordCreationDate encoding="iso8601">2015-06-03T13:22:39.665+01:00</mods:recordCreationDate>
                  <mods:recordContentSource>Manchester eScholar</mods:recordContentSource>
               </mods:recordInfo>
               <mods:relatedItem type="host">
                  <mods:identifier type="issn"/>
                  <mods:titleInfo>
                     <mods:title>E-readiness for the UK Construction Industry  the next chapter?</mods:title>
                  </mods:titleInfo>
                  <mods:part>
                     <mods:extent unit="page">
                        <mods:start/>
                        <mods:end/>
                        <mods:total>0</mods:total>
                        <mods:list/>
                     </mods:extent>
                  </mods:part>
                  <mods:relatedItem type="host">
                     <mods:titleInfo>
                        <mods:title>5th ASEAN Postgraduate Conference Seminar, University of Malaya, Malaysia</mods:title>
                     </mods:titleInfo>
                     <mods:originInfo>
                        <mods:dateOther encoding="iso8601" point="start">2010-11</mods:dateOther>
                     </mods:originInfo>
                  </mods:relatedItem>
               </mods:relatedItem>
               <mods:relatedItem type="preceding">
                  <mods:identifier type="uri"/>
               </mods:relatedItem>
               <mods:titleInfo>
                  <mods:title>E-readiness for the UK Construction Industry  the next chapter?</mods:title>
               </mods:titleInfo>
               <mods:typeOfResource>text</mods:typeOfResource>
            </mods:mods>
         </foxml:xmlContent>
      </foxml:datastreamVersion>
   </foxml:datastream>
   <foxml:datastream CONTROL_GROUP="M"
                     ID="FULL-TEXT.PDF"
                     STATE="A"
                     VERSIONABLE="false">
      <foxml:datastreamVersion ID="FULL-TEXT.PDF.0"
                               LABEL="ASEAN-paper-v1.pdf"
                               MIMETYPE="application/pdf">
         <foxml:contentLocation TYPE="URL"
                                REF="http://fedprdir.library.manchester.ac.uk/uploaded/mace/ASEAN-paper-v1.pdf"/>
      </foxml:datastreamVersion>
   </foxml:datastream>
   <foxml:datastream CONTROL_GROUP="X" ID="RELS-EXT" STATE="A" VERSIONABLE="false">
      <foxml:datastreamVersion CREATED="2015-06-03T13:22:39.665Z"
                               ID="RELS-EXT.1"
                               LABEL="Relationships"
                               MIMETYPE="text/xml"
                               SIZE="920">
         <foxml:xmlContent>
            <rdf:RDF xmlns:esc-rel="http://www.escholar.manchester.ac.uk/esc/rel/v1#"
                     xmlns:rdf="http://www.w3.org/1999/02/22-rdf-syntax-ns#">
               <rdf:Description rdf:about="info:fedora/uk-ac-man-scw:ma1605">
                  <esc-rel:isBelongsTo rdf:resource="info:fedora/uk-ac-man-per:133291"/>
                  <esc-rel:isBelongsToOrg rdf:resource="info:fedora/uk-ac-man-org:1"/>
                  <esc-rel:isBelongsToOrg rdf:resource="info:fedora/uk-ac-man-org:41"/>
                  <esc-rel:isBelongsToOrg rdf:resource="info:fedora/uk-ac-man-org:347"/>
                  <esc-rel:isCreatedBy rdf:resource="info:fedora/uk-ac-man-per:admin"/>
                  <esc-rel:isLastModifiedBy rdf:resource="info:fedora/uk-ac-man-per:admin"/>
                  <esc-rel:isDerivationOf rdf:resource="info:fedora/uk-ac-man-scw:base"/>
                  <esc-rel:isOfContenttype rdf:resource="info:fedora/uk-ac-man-con:2"/>
               </rdf:Description>
            </rdf:RDF>
         </foxml:xmlContent>
      </foxml:datastreamVersion>
   </foxml:datastream>
</foxml:digitalObject>
