<?xml version="1.0" encoding="UTF-8"?>
<foxml:digitalObject xmlns:foxml="info:fedora/fedora-system:def/foxml#"
                     VERSION="1.1"
                     PID="uk-ac-man-scw:ma892">
   <foxml:objectProperties>
      <foxml:property NAME="info:fedora/fedora-system:def/model#state" VALUE="Active"/>
   </foxml:objectProperties>
   <foxml:datastream CONTROL_GROUP="X" ID="MODS" STATE="A" VERSIONABLE="true">
      <foxml:datastreamVersion CREATED="2015-05-26T11:07:30.261Z"
                               ID="MODS.0"
                               LABEL="Metadata Object Description Schema record"
                               MIMETYPE="text/xml"
                               SIZE="3550">
         <foxml:xmlContent>
            <mods:mods xmlns:mods="http://www.loc.gov/mods/v3"
                       xmlns:xsi="http://www.w3.org/2001/XMLSchema-instance"
                       version="3.3"
                       xsi:schemaLocation="http://www.loc.gov/mods/v3 http://www.loc.gov/standards/mods/v3/mods-3-3.xsd">
               <mods:abstract>Radioactive graphite constitutes a major waste stream which arises during the 
decommissioning of certain types of nuclear  installations. Worldwide, a total of around 
250 000 tonnes of radioactive graphite, comprising graphite moderators and reflectors, will 
require management solutions in the coming years. 
14
C is the radionuclide of greatest concern in nuclear graphite; it arises principally through the 
interaction of reactor neutrons with nitrogen, which is present in graphite as an impurity or in 
the reactor coolant or cover gas. 
3
H is created by the reactions of neutrons with 
6
Li impurities 
in graphite as well as in fission of the fuel. 
36
Cl is generated in the neutron activation of 
chlorine impurities in graphite. 
Problems in the radioactive waste management of graphite arise mainly because of the large 
volumes requiring disposal, the long half-lives of the main radionuclides involved and the 
specific properties of graphite  such as stored Wigner energy, graphite dust explosibility 
and the potential for radioactive gases to be released.</mods:abstract>
               <mods:genre authority="local" type="content-type">technical-report</mods:genre>
               <mods:note type="authors">Abbie Jones, Barry Marsden, T J Marrow</mods:note>
               <mods:originInfo>
                  <mods:dateIssued encoding="iso8601">2010-07</mods:dateIssued>
                  <mods:publisher>IAEA</mods:publisher>
               </mods:originInfo>
               <mods:recordInfo>
                  <mods:recordCreationDate encoding="iso8601">2015-05-26T11:07:30.261+01:00</mods:recordCreationDate>
                  <mods:recordContentSource>Manchester eScholar</mods:recordContentSource>
               </mods:recordInfo>
               <mods:relatedItem type="host">
                  <mods:identifier type="isbn">978-92-0-106</mods:identifier>
                  <mods:titleInfo>
                     <mods:title>IAEA-TECDOC-1647_ Review of the Characterisation of Nuclear Graphites in UK Reactors Scheduled for Decommissioning</mods:title>
                  </mods:titleInfo>
                  <mods:relatedItem type="host">
                     <mods:titleInfo>
                        <mods:title/>
                     </mods:titleInfo>
                  </mods:relatedItem>
               </mods:relatedItem>
               <mods:relatedItem type="preceding">
                  <mods:identifier type="uri"/>
               </mods:relatedItem>
               <mods:titleInfo>
                  <mods:title>IAEA-TECDOC-1647_ Review of the Characterisation of Nuclear Graphites in UK Reactors Scheduled for Decommissioning</mods:title>
               </mods:titleInfo>
               <mods:typeOfResource>text</mods:typeOfResource>
            </mods:mods>
         </foxml:xmlContent>
      </foxml:datastreamVersion>
   </foxml:datastream>
   <foxml:datastream CONTROL_GROUP="X" ID="RELS-EXT" STATE="A" VERSIONABLE="false">
      <foxml:datastreamVersion CREATED="2015-05-26T11:07:30.261Z"
                               ID="RELS-EXT.1"
                               LABEL="Relationships"
                               MIMETYPE="text/xml"
                               SIZE="920">
         <foxml:xmlContent>
            <rdf:RDF xmlns:esc-rel="http://www.escholar.manchester.ac.uk/esc/rel/v1#"
                     xmlns:rdf="http://www.w3.org/1999/02/22-rdf-syntax-ns#">
               <rdf:Description rdf:about="info:fedora/uk-ac-man-scw:ma892">
                  <esc-rel:isBelongsTo rdf:resource="info:fedora/uk-ac-man-per:abcde42"/>
                  <esc-rel:isBelongsTo rdf:resource="info:fedora/uk-ac-man-per:49928"/>
                  <esc-rel:isBelongsToOrg rdf:resource="info:fedora/uk-ac-man-org:1"/>
                  <esc-rel:isBelongsToOrg rdf:resource="info:fedora/uk-ac-man-org:41"/>
                  <esc-rel:isBelongsToOrg rdf:resource="info:fedora/uk-ac-man-org:345"/>
                  <esc-rel:isBelongsTo rdf:resource="info:fedora/uk-ac-man-per:60401"/>
                  <esc-rel:isBelongsToOrg rdf:resource="info:fedora/uk-ac-man-org:1"/>
                  <esc-rel:isBelongsToOrg rdf:resource="info:fedora/uk-ac-man-org:41"/>
                  <esc-rel:isBelongsToOrg rdf:resource="info:fedora/uk-ac-man-org:345"/>
                  <esc-rel:isCreatedBy rdf:resource="info:fedora/uk-ac-man-per:admin"/>
                  <esc-rel:isLastModifiedBy rdf:resource="info:fedora/uk-ac-man-per:admin"/>
                  <esc-rel:isDerivationOf rdf:resource="info:fedora/uk-ac-man-scw:base"/>
                  <esc-rel:isOfContenttype rdf:resource="info:fedora/uk-ac-man-con:14"/>
               </rdf:Description>
            </rdf:RDF>
         </foxml:xmlContent>
      </foxml:datastreamVersion>
   </foxml:datastream>
</foxml:digitalObject>
