<?xml version="1.0" encoding="UTF-8"?>
<foxml:digitalObject xmlns:foxml="info:fedora/fedora-system:def/foxml#"
                     VERSION="1.1"
                     PID="uk-ac-man-scw:ma818">
   <foxml:objectProperties>
      <foxml:property NAME="info:fedora/fedora-system:def/model#state" VALUE="Active"/>
   </foxml:objectProperties>
   <foxml:datastream CONTROL_GROUP="X" ID="MODS" STATE="A" VERSIONABLE="true">
      <foxml:datastreamVersion CREATED="2015-05-26T11:07:30.261Z"
                               ID="MODS.0"
                               LABEL="Metadata Object Description Schema record"
                               MIMETYPE="text/xml"
                               SIZE="3550">
         <foxml:xmlContent>
            <mods:mods xmlns:mods="http://www.loc.gov/mods/v3"
                       xmlns:xsi="http://www.w3.org/2001/XMLSchema-instance"
                       version="3.3"
                       xsi:schemaLocation="http://www.loc.gov/mods/v3 http://www.loc.gov/standards/mods/v3/mods-3-3.xsd">
               <mods:abstract>The Manchester School of Engineering now uses Problem Based Learning (PBL) to deliver core engineering science learning in the first year of its undergraduate programme. This paper describes the design and implementation philosophy for PBL units, using a PBL based on the design and make of a hovercraft as an example. PBL documentation is presented in terms of a student pack and a facilitator pack. The hovercraft PBL was run for the first time in January 2002. Overall, the PBL was successful in delivering the majority of the intended learning outcomes. However the group based programming exercise and expert forums were less successful. Furthermore, there is opportunity to beneficially increase the level of challenge posed by the Hovercraft and other first year PBL units.</mods:abstract>
               <mods:genre authority="local" type="content-type">journal-article</mods:genre>
               <mods:note type="authors">William Crowther</mods:note>
               <mods:originInfo>
                  <mods:dateIssued encoding="iso8601">2002</mods:dateIssued>
                  <mods:publisher/>
               </mods:originInfo>
               <mods:recordInfo>
                  <mods:recordCreationDate encoding="iso8601">2015-05-26T11:07:30.261+01:00</mods:recordCreationDate>
                  <mods:recordContentSource>Manchester eScholar</mods:recordContentSource>
               </mods:recordInfo>
               <mods:relatedItem type="host">
                  <mods:identifier type="isbn"/>
                  <mods:titleInfo>
                     <mods:title>Design and implementation of a Hovercraft Problem Based Learning exercise to teach first year fluids. International Conference on Engineering Education, Manchester 2002</mods:title>
                  </mods:titleInfo>
                  <mods:relatedItem type="host">
                     <mods:titleInfo>
                        <mods:title>Conferenc Contribution</mods:title>
                     </mods:titleInfo>
                  </mods:relatedItem>
               </mods:relatedItem>
               <mods:relatedItem type="preceding">
                  <mods:identifier type="uri"/>
               </mods:relatedItem>
               <mods:titleInfo>
                  <mods:title>Design and implementation of a Hovercraft Problem Based Learning exercise to teach first year fluids. International Conference on Engineering Education, Manchester 2002</mods:title>
               </mods:titleInfo>
               <mods:typeOfResource>text</mods:typeOfResource>
            </mods:mods>
         </foxml:xmlContent>
      </foxml:datastreamVersion>
   </foxml:datastream>
   <foxml:datastream CONTROL_GROUP="M"
                     ID="FULL-TEXT.PDF"
                     STATE="A"
                     VERSIONABLE="false">
      <foxml:datastreamVersion ID="FULL-TEXT.PDF.0"
                               LABEL="ICEE_2002_paper_195_Hovercraft_PBL.pdf"
                               MIMETYPE="application/pdf">
         <foxml:contentLocation TYPE="URL"
                                REF="http://fedprdir.library.manchester.ac.uk/uploaded/mace/ICEE_2002_paper_195_Hovercraft_PBL.pdf"/>
      </foxml:datastreamVersion>
   </foxml:datastream>
   <foxml:datastream CONTROL_GROUP="X" ID="RELS-EXT" STATE="A" VERSIONABLE="false">
      <foxml:datastreamVersion CREATED="2015-05-26T11:07:30.261Z"
                               ID="RELS-EXT.1"
                               LABEL="Relationships"
                               MIMETYPE="text/xml"
                               SIZE="920">
         <foxml:xmlContent>
            <rdf:RDF xmlns:esc-rel="http://www.escholar.manchester.ac.uk/esc/rel/v1#"
                     xmlns:rdf="http://www.w3.org/1999/02/22-rdf-syntax-ns#">
               <rdf:Description rdf:about="info:fedora/uk-ac-man-scw:ma818">
                  <esc-rel:isBelongsTo rdf:resource="info:fedora/uk-ac-man-per:abcde36"/>
                  <esc-rel:isBelongsTo rdf:resource="info:fedora/uk-ac-man-per:46109"/>
                  <esc-rel:isBelongsToOrg rdf:resource="info:fedora/uk-ac-man-org:1"/>
                  <esc-rel:isBelongsToOrg rdf:resource="info:fedora/uk-ac-man-org:41"/>
                  <esc-rel:isBelongsToOrg rdf:resource="info:fedora/uk-ac-man-org:345"/>
                  <esc-rel:isCreatedBy rdf:resource="info:fedora/uk-ac-man-per:admin"/>
                  <esc-rel:isLastModifiedBy rdf:resource="info:fedora/uk-ac-man-per:admin"/>
                  <esc-rel:isDerivationOf rdf:resource="info:fedora/uk-ac-man-scw:base"/>
                  <esc-rel:isOfContenttype rdf:resource="info:fedora/uk-ac-man-con:1"/>
               </rdf:Description>
            </rdf:RDF>
         </foxml:xmlContent>
      </foxml:datastreamVersion>
   </foxml:datastream>
</foxml:digitalObject>
