<?xml version="1.0" encoding="UTF-8"?>
<foxml:digitalObject xmlns:foxml="info:fedora/fedora-system:def/foxml#"
                     VERSION="1.1"
                     PID="uk-ac-man-scw:ma336">
   <foxml:objectProperties>
      <foxml:property NAME="info:fedora/fedora-system:def/model#state" VALUE="Active"/>
   </foxml:objectProperties>
   <foxml:datastream CONTROL_GROUP="X" ID="MODS" STATE="A" VERSIONABLE="true">
      <foxml:datastreamVersion CREATED="2015-05-19T17:06:30.648Z"
                               ID="MODS.0"
                               LABEL="Metadata Object Description Schema record"
                               MIMETYPE="text/xml"
                               SIZE="3550">
         <foxml:xmlContent>
            <mods:mods xmlns:mods="http://www.loc.gov/mods/v3"
                       xmlns:xsi="http://www.w3.org/2001/XMLSchema-instance"
                       version="3.3"
                       xsi:schemaLocation="http://www.loc.gov/mods/v3 http://www.loc.gov/standards/mods/v3/mods-3-3.xsd">
               <mods:abstract>The members of the European network NeT have undertaken parallel round robin activities measuring and simulating the residual stresses generated by laying a single Tungsten Inert Gas (TIG) weld bead on an AISI Type 316L austenitic stainless steel flat plate. This is a strongly three-dimensional configuration with many of the characteristics of a repair weld. The round robin finite element predictions of weld residual stresses are compared with each other in order to identify the effects on the predicted residual stresses of material hardening model, global heat input, mechanical and thermal boundary conditions, and the handling of high temperature inelastic strains. Comparison with the residual stress measurements then leads to the optimum choices for these variables.

Keywords
Weld residual stress simulation; Benchmarking; Accuracy; Comparison with measurements; Material hardening models</mods:abstract>
               <mods:genre authority="local" type="content-type">journal-article</mods:genre>
               <mods:genre type="version">Original research</mods:genre>
               <mods:genre type="form">Academic journal article</mods:genre>
               <mods:language>
                  <mods:languageTerm authority="iso639-3" type="code">eng</mods:languageTerm>
               </mods:language>
               <mods:note type="authors">A  C Smith, Michael Smith</mods:note>
               <mods:originInfo>
                  <mods:dateIssued encoding="iso8601">2009</mods:dateIssued>
                  <mods:publisher>Elsevier Science</mods:publisher>
               </mods:originInfo>
               <mods:recordInfo>
                  <mods:recordCreationDate encoding="iso8601">2015-05-19T17:06:30.648+01:00</mods:recordCreationDate>
                  <mods:recordContentSource>Manchester eScholar</mods:recordContentSource>
               </mods:recordInfo>
               <mods:relatedItem type="host">
                  <mods:titleInfo>
                     <mods:title>International Journal of Pressure Vessels and Piping</mods:title>
                  </mods:titleInfo>
                  <mods:part>
                     <mods:detail type="issue">
                        <mods:number>1</mods:number>
                     </mods:detail>
                     <mods:detail type="volume">
                        <mods:number>86</mods:number>
                     </mods:detail>
                     <mods:extent unit="page">
                        <mods:start>79</mods:start>
                        <mods:end>95</mods:end>
                        <mods:total>16</mods:total>
                        <mods:list>79-95</mods:list>
                     </mods:extent>
                  </mods:part>
                  <mods:identifier type="issn">0308-0161</mods:identifier>
               </mods:relatedItem>
               <mods:relatedItem type="preceding">
                  <mods:titleInfo>
                     <mods:title/>
                  </mods:titleInfo>
                  <mods:identifier type="uri"/>
               </mods:relatedItem>
               <mods:titleInfo>
                  <mods:title>NeT bead on plate round robin: Comparison of residual stress predictions and measurements</mods:title>
               </mods:titleInfo>
               <mods:typeOfResource>text</mods:typeOfResource>
            </mods:mods>
         </foxml:xmlContent>
      </foxml:datastreamVersion>
   </foxml:datastream>
   <foxml:datastream CONTROL_GROUP="X" ID="RELS-EXT" STATE="A" VERSIONABLE="false">
      <foxml:datastreamVersion CREATED="2015-05-19T17:06:30.648Z"
                               ID="RELS-EXT.1"
                               LABEL="Relationships"
                               MIMETYPE="text/xml"
                               SIZE="920">
         <foxml:xmlContent>
            <rdf:RDF xmlns:esc-rel="http://www.escholar.manchester.ac.uk/esc/rel/v1#"
                     xmlns:rdf="http://www.w3.org/1999/02/22-rdf-syntax-ns#">
               <rdf:Description rdf:about="info:fedora/uk-ac-man-scw:ma336">
                  <esc-rel:isBelongsTo rdf:resource="info:fedora/uk-ac-man-per:abcde39"/>
                  <esc-rel:isBelongsTo rdf:resource="info:fedora/uk-ac-man-per:abcde41"/>
                  <esc-rel:isBelongsTo rdf:resource="info:fedora/uk-ac-man-per:abcde42"/>
                  <esc-rel:isBelongsTo rdf:resource="info:fedora/uk-ac-man-per:abcde47"/>
                  <esc-rel:isBelongsTo rdf:resource="info:fedora/uk-ac-man-per:122666"/>
                  <esc-rel:isBelongsToOrg rdf:resource="info:fedora/uk-ac-man-org:1"/>
                  <esc-rel:isBelongsToOrg rdf:resource="info:fedora/uk-ac-man-org:41"/>
                  <esc-rel:isBelongsToOrg rdf:resource="info:fedora/uk-ac-man-org:203"/>
                  <esc-rel:isBelongsToOrg rdf:resource="info:fedora/uk-ac-man-org:1"/>
                  <esc-rel:isBelongsToOrg rdf:resource="info:fedora/uk-ac-man-org:41"/>
                  <esc-rel:isBelongsToOrg rdf:resource="info:fedora/uk-ac-man-org:347"/>
                  <esc-rel:isCreatedBy rdf:resource="info:fedora/uk-ac-man-per:admin"/>
                  <esc-rel:isLastModifiedBy rdf:resource="info:fedora/uk-ac-man-per:admin"/>
                  <esc-rel:isDerivationOf rdf:resource="info:fedora/uk-ac-man-scw:base"/>
                  <esc-rel:isOfContenttype rdf:resource="info:fedora/uk-ac-man-con:1"/>
               </rdf:Description>
            </rdf:RDF>
         </foxml:xmlContent>
      </foxml:datastreamVersion>
   </foxml:datastream>
</foxml:digitalObject>
