<?xml version="1.0" encoding="UTF-8"?>
<foxml:digitalObject xmlns:foxml="info:fedora/fedora-system:def/foxml#"
                     VERSION="1.1"
                     PID="uk-ac-man-scw:ma334">
   <foxml:objectProperties>
      <foxml:property NAME="info:fedora/fedora-system:def/model#state" VALUE="Active"/>
   </foxml:objectProperties>
   <foxml:datastream CONTROL_GROUP="X" ID="MODS" STATE="A" VERSIONABLE="true">
      <foxml:datastreamVersion CREATED="2015-05-19T17:06:30.648Z"
                               ID="MODS.0"
                               LABEL="Metadata Object Description Schema record"
                               MIMETYPE="text/xml"
                               SIZE="3550">
         <foxml:xmlContent>
            <mods:mods xmlns:mods="http://www.loc.gov/mods/v3"
                       xmlns:xsi="http://www.w3.org/2001/XMLSchema-instance"
                       version="3.3"
                       xsi:schemaLocation="http://www.loc.gov/mods/v3 http://www.loc.gov/standards/mods/v3/mods-3-3.xsd">
               <mods:abstract>Modelling the dynamic interaction of blast loading with primary aircraft structures is of great interest to both the
military and civil sector as the threat of sabotage and terrorism increases. This paper examines and models the
dynamic behavior of a fiber-metal laminate known as glass-fiber reinforced laminate (Glare) to dynamic loading
based on experimental data using the arbitrary-LagrangianEulerian multimaterial formulation in the explicit
finite-element solver LS-DYNA. To validate the predictive methodology as well as to prove its ability to simulate
complicated blast tests, two different scenarios were examined based on experimental data. The first examined the
blast response of Glare flat panels subjected to an open-air blast, and the second examined the blast propagation in a
pressurized cylindrical barrel. The predicted numerical results agree very well with those of experiments. This
computational approach is able to accurately predict the relevant aspects of the blaststructure interaction problem,
including the blast wave propagation in the medium for pressurized loading cases and the response of the structure to
blast loading.</mods:abstract>
               <mods:genre authority="local" type="content-type">journal-article</mods:genre>
               <mods:genre type="version">Original research</mods:genre>
               <mods:genre type="form">Academic journal article</mods:genre>
               <mods:language>
                  <mods:languageTerm authority="iso639-3" type="code">eng</mods:languageTerm>
               </mods:language>
               <mods:note type="authors">A Hodzic, Costas Soutis, G Mohamed</mods:note>
               <mods:originInfo>
                  <mods:dateIssued encoding="iso8601">2012</mods:dateIssued>
                  <mods:publisher>Techno-Press</mods:publisher>
               </mods:originInfo>
               <mods:recordInfo>
                  <mods:recordCreationDate encoding="iso8601">2015-05-19T17:06:30.648+01:00</mods:recordCreationDate>
                  <mods:recordContentSource>Manchester eScholar</mods:recordContentSource>
               </mods:recordInfo>
               <mods:relatedItem type="host">
                  <mods:titleInfo>
                     <mods:title>Structural Engineering &amp; Mechanics</mods:title>
                  </mods:titleInfo>
                  <mods:part>
                     <mods:detail type="issue">
                        <mods:number>9</mods:number>
                     </mods:detail>
                     <mods:detail type="volume">
                        <mods:number>50</mods:number>
                     </mods:detail>
                     <mods:extent unit="page">
                        <mods:start/>
                        <mods:end/>
                        <mods:total>0</mods:total>
                        <mods:list/>
                     </mods:extent>
                  </mods:part>
                  <mods:identifier type="issn">1225-4568</mods:identifier>
               </mods:relatedItem>
               <mods:relatedItem type="preceding">
                  <mods:titleInfo>
                     <mods:title/>
                  </mods:titleInfo>
                  <mods:identifier type="uri"/>
               </mods:relatedItem>
               <mods:titleInfo>
                  <mods:title>Multi-material Arbitrary-Lagrangian-Eulerian formulation for blast-induced fluid-structure interaction in fibre metal laminates</mods:title>
               </mods:titleInfo>
               <mods:typeOfResource>text</mods:typeOfResource>
            </mods:mods>
         </foxml:xmlContent>
      </foxml:datastreamVersion>
   </foxml:datastream>
   <foxml:datastream CONTROL_GROUP="X" ID="RELS-EXT" STATE="A" VERSIONABLE="false">
      <foxml:datastreamVersion CREATED="2015-05-19T17:06:30.648Z"
                               ID="RELS-EXT.1"
                               LABEL="Relationships"
                               MIMETYPE="text/xml"
                               SIZE="920">
         <foxml:xmlContent>
            <rdf:RDF xmlns:esc-rel="http://www.escholar.manchester.ac.uk/esc/rel/v1#"
                     xmlns:rdf="http://www.w3.org/1999/02/22-rdf-syntax-ns#">
               <rdf:Description rdf:about="info:fedora/uk-ac-man-scw:ma334">
                  <esc-rel:isBelongsTo rdf:resource="info:fedora/uk-ac-man-per:119765"/>
                  <esc-rel:isBelongsToOrg rdf:resource="info:fedora/uk-ac-man-org:1"/>
                  <esc-rel:isBelongsToOrg rdf:resource="info:fedora/uk-ac-man-org:39"/>
                  <esc-rel:isBelongsToOrg rdf:resource="info:fedora/uk-ac-man-org:209"/>
                  <esc-rel:isCreatedBy rdf:resource="info:fedora/uk-ac-man-per:admin"/>
                  <esc-rel:isLastModifiedBy rdf:resource="info:fedora/uk-ac-man-per:admin"/>
                  <esc-rel:isDerivationOf rdf:resource="info:fedora/uk-ac-man-scw:base"/>
                  <esc-rel:isOfContenttype rdf:resource="info:fedora/uk-ac-man-con:1"/>
               </rdf:Description>
            </rdf:RDF>
         </foxml:xmlContent>
      </foxml:datastreamVersion>
   </foxml:datastream>
</foxml:digitalObject>
