<?xml version="1.0" encoding="UTF-8"?>
<foxml:digitalObject xmlns:foxml="info:fedora/fedora-system:def/foxml#"
                     VERSION="1.1"
                     PID="uk-ac-man-scw:ma147">
   <foxml:objectProperties>
      <foxml:property NAME="info:fedora/fedora-system:def/model#state" VALUE="Active"/>
   </foxml:objectProperties>
   <foxml:datastream CONTROL_GROUP="X" ID="MODS" STATE="A" VERSIONABLE="true">
      <foxml:datastreamVersion CREATED="2015-05-19T17:06:30.648Z"
                               ID="MODS.0"
                               LABEL="Metadata Object Description Schema record"
                               MIMETYPE="text/xml"
                               SIZE="3550">
         <foxml:xmlContent>
            <mods:mods xmlns:mods="http://www.loc.gov/mods/v3"
                       xmlns:xsi="http://www.w3.org/2001/XMLSchema-instance"
                       version="3.3"
                       xsi:schemaLocation="http://www.loc.gov/mods/v3 http://www.loc.gov/standards/mods/v3/mods-3-3.xsd">
               <mods:abstract>Selected instrumental techniques [dilatometry, thermogravimetry mass spectrometry (TG-MS), and variable temperature diffuse reflectance infrared Fourier transform spectroscopy (VT-DRIFTS)] have been used to investigate the role of moisture in the rehydroxylation reaction which causes expansion and mass gain in fired clay ceramics. The temperature range over which adsorbed water molecules and structural hydroxyl groups are desorbed from fired clay ceramic as it is reheated, and the nature of the structural hydroxyls that are formed as the ceramic is cooled and then held under controlled conditions have been explored. The mass chromatogram for m/z = 18, supported by VT-DRIFTS, showed that physisorbed water molecules were removed from the ceramic at about 105C, whereas strongly bound molecules of water and structural hydroxyls were held to &amp;le;500C. Dilatometry revealed a marked contraction of the ceramic between 200C and 330C which corresponded to loss of strongly bound molecules of water. The VT-DRIFTS also showed that the interaction of water molecules with the ceramic body following reheating occurred in two stages and confirmed the kinetic law previously derived from mass gain and moisture expansion in fired clay ceramics.</mods:abstract>
               <mods:genre authority="local" type="content-type">journal-article</mods:genre>
               <mods:genre type="version">Original research</mods:genre>
               <mods:genre type="form">Academic journal article</mods:genre>
               <mods:language>
                  <mods:languageTerm authority="iso639-3" type="code">eng</mods:languageTerm>
               </mods:language>
               <mods:note type="authors">C Breen, c Ince, F Clegg, Margaret Carter, Moira Wilson, S Savage</mods:note>
               <mods:originInfo>
                  <mods:dateIssued encoding="iso8601">2011</mods:dateIssued>
                  <mods:publisher>John Wiley and Sons</mods:publisher>
               </mods:originInfo>
               <mods:recordInfo>
                  <mods:recordCreationDate encoding="iso8601">2015-05-19T17:06:30.648+01:00</mods:recordCreationDate>
                  <mods:recordContentSource>Manchester eScholar</mods:recordContentSource>
               </mods:recordInfo>
               <mods:relatedItem type="host">
                  <mods:titleInfo>
                     <mods:title>Journal of the American Ceramic society</mods:title>
                  </mods:titleInfo>
                  <mods:part>
                     <mods:detail type="issue">
                        <mods:number>0</mods:number>
                     </mods:detail>
                     <mods:detail type="volume">
                        <mods:number>95</mods:number>
                     </mods:detail>
                     <mods:extent unit="page">
                        <mods:start>415</mods:start>
                        <mods:end>422</mods:end>
                        <mods:total>7</mods:total>
                        <mods:list>415-422</mods:list>
                     </mods:extent>
                  </mods:part>
                  <mods:identifier type="issn">0002-7820</mods:identifier>
               </mods:relatedItem>
               <mods:relatedItem type="preceding">
                  <mods:titleInfo>
                     <mods:title/>
                  </mods:titleInfo>
                  <mods:identifier type="uri"/>
               </mods:relatedItem>
               <mods:titleInfo>
                  <mods:title>Dehydroxylation and Rehydroxylation Mechanisms in Fired Clay</mods:title>
               </mods:titleInfo>
               <mods:typeOfResource>text</mods:typeOfResource>
            </mods:mods>
         </foxml:xmlContent>
      </foxml:datastreamVersion>
   </foxml:datastream>
   <foxml:datastream CONTROL_GROUP="X" ID="RELS-EXT" STATE="A" VERSIONABLE="false">
      <foxml:datastreamVersion CREATED="2015-05-19T17:06:30.648Z"
                               ID="RELS-EXT.1"
                               LABEL="Relationships"
                               MIMETYPE="text/xml"
                               SIZE="920">
         <foxml:xmlContent>
            <rdf:RDF xmlns:esc-rel="http://www.escholar.manchester.ac.uk/esc/rel/v1#"
                     xmlns:rdf="http://www.w3.org/1999/02/22-rdf-syntax-ns#">
               <rdf:Description rdf:about="info:fedora/uk-ac-man-scw:ma147">
                  <esc-rel:isBelongsTo rdf:resource="info:fedora/uk-ac-man-per:39457"/>
                  <esc-rel:isBelongsTo rdf:resource="info:fedora/uk-ac-man-per:39784"/>
                  <esc-rel:isBelongsToOrg rdf:resource="info:fedora/uk-ac-man-org:1"/>
                  <esc-rel:isBelongsToOrg rdf:resource="info:fedora/uk-ac-man-org:41"/>
                  <esc-rel:isBelongsToOrg rdf:resource="info:fedora/uk-ac-man-org:347"/>
                  <esc-rel:isCreatedBy rdf:resource="info:fedora/uk-ac-man-per:admin"/>
                  <esc-rel:isLastModifiedBy rdf:resource="info:fedora/uk-ac-man-per:admin"/>
                  <esc-rel:isDerivationOf rdf:resource="info:fedora/uk-ac-man-scw:base"/>
                  <esc-rel:isOfContenttype rdf:resource="info:fedora/uk-ac-man-con:1"/>
               </rdf:Description>
            </rdf:RDF>
         </foxml:xmlContent>
      </foxml:datastreamVersion>
   </foxml:datastream>
</foxml:digitalObject>
