<?xml version="1.0" encoding="UTF-8"?>
<foxml:digitalObject xmlns:foxml="info:fedora/fedora-system:def/foxml#"
                     VERSION="1.1"
                     PID="uk-ac-man-scw:ma384">
   <foxml:objectProperties>
      <foxml:property NAME="info:fedora/fedora-system:def/model#state" VALUE="Active"/>
   </foxml:objectProperties>
   <foxml:datastream CONTROL_GROUP="X" ID="MODS" STATE="A" VERSIONABLE="true">
      <foxml:datastreamVersion CREATED="2015-05-19T17:06:30.648Z"
                               ID="MODS.0"
                               LABEL="Metadata Object Description Schema record"
                               MIMETYPE="text/xml"
                               SIZE="3550">
         <foxml:xmlContent>
            <mods:mods xmlns:mods="http://www.loc.gov/mods/v3"
                       xmlns:xsi="http://www.w3.org/2001/XMLSchema-instance"
                       version="3.3"
                       xsi:schemaLocation="http://www.loc.gov/mods/v3 http://www.loc.gov/standards/mods/v3/mods-3-3.xsd">
               <mods:abstract>In Chemistry, practical work is a highly demanding process in which students should be well-prepared before and alert during,
laboratory sessions. Various general difficulties such as the limited laboratory time and the lack of connections between theory
and practicals often do not allow students to actively participate in the learning process. The aim of this investigation is to study
how an online general pre-laboratory training course inspired by cognitive load theory influenced the teaching of first year
chemistry students engaged in laboratory work. Two different groups of chemistry students (experimental group (EG) and
control group (CG)) from the University of Manchester participated in this investigation. The EG group participated in the online
pre-laboratory course before entering the laboratory, while the CG group performed the experiments following the traditional
teaching procedure. The comparison of students responses to the same assessments of fundamental chemical and basic
laboratory knowledge showed that overall the performance of the EG group of students was higher than that of the CG
students. Overall, the EG students valued the opportunity to have an online training course. By creating a flexible learning
environment which included animations, simulations and self-assessments, the general laboratory difficulties were overcome.
These interactive learning features gave students the opportunity to engage in independent study, by which restrictions of time
and place were overcome.</mods:abstract>
               <mods:genre authority="local" type="content-type">journal-article</mods:genre>
               <mods:genre type="version">Original research</mods:genre>
               <mods:genre type="form">Academic journal article</mods:genre>
               <mods:language>
                  <mods:languageTerm authority="iso639-3" type="code">eng</mods:languageTerm>
               </mods:language>
               <mods:note type="authors">JC Whitehead, Maria Limniou</mods:note>
               <mods:originInfo>
                  <mods:dateIssued encoding="iso8601">2010</mods:dateIssued>
                  <mods:publisher/>
               </mods:originInfo>
               <mods:recordInfo>
                  <mods:recordCreationDate encoding="iso8601">2015-05-19T17:06:30.648+01:00</mods:recordCreationDate>
                  <mods:recordContentSource>Manchester eScholar</mods:recordContentSource>
               </mods:recordInfo>
               <mods:relatedItem type="host">
                  <mods:titleInfo>
                     <mods:title>Cypriot Journal of Educational Sciences</mods:title>
                  </mods:titleInfo>
                  <mods:part>
                     <mods:detail type="issue">
                        <mods:number>0</mods:number>
                     </mods:detail>
                     <mods:detail type="volume">
                        <mods:number>5</mods:number>
                     </mods:detail>
                     <mods:extent unit="page">
                        <mods:start>39</mods:start>
                        <mods:end>55</mods:end>
                        <mods:total>16</mods:total>
                        <mods:list>39-55</mods:list>
                     </mods:extent>
                  </mods:part>
                  <mods:identifier type="issn"/>
               </mods:relatedItem>
               <mods:relatedItem type="preceding">
                  <mods:titleInfo>
                     <mods:title/>
                  </mods:titleInfo>
                  <mods:identifier type="uri"/>
               </mods:relatedItem>
               <mods:titleInfo>
                  <mods:title>Online general pre-laboratory training course for facilitating first year chemical laboratory</mods:title>
               </mods:titleInfo>
               <mods:typeOfResource>text</mods:typeOfResource>
            </mods:mods>
         </foxml:xmlContent>
      </foxml:datastreamVersion>
   </foxml:datastream>
   <foxml:datastream CONTROL_GROUP="X" ID="RELS-EXT" STATE="A" VERSIONABLE="false">
      <foxml:datastreamVersion CREATED="2015-05-19T17:06:30.648Z"
                               ID="RELS-EXT.1"
                               LABEL="Relationships"
                               MIMETYPE="text/xml"
                               SIZE="920">
         <foxml:xmlContent>
            <rdf:RDF xmlns:esc-rel="http://www.escholar.manchester.ac.uk/esc/rel/v1#"
                     xmlns:rdf="http://www.w3.org/1999/02/22-rdf-syntax-ns#">
               <rdf:Description rdf:about="info:fedora/uk-ac-man-scw:ma384">
                  <esc-rel:isBelongsTo rdf:resource="info:fedora/uk-ac-man-per:61591"/>
                  <esc-rel:isCreatedBy rdf:resource="info:fedora/uk-ac-man-per:admin"/>
                  <esc-rel:isLastModifiedBy rdf:resource="info:fedora/uk-ac-man-per:admin"/>
                  <esc-rel:isDerivationOf rdf:resource="info:fedora/uk-ac-man-scw:base"/>
                  <esc-rel:isOfContenttype rdf:resource="info:fedora/uk-ac-man-con:1"/>
               </rdf:Description>
            </rdf:RDF>
         </foxml:xmlContent>
      </foxml:datastreamVersion>
   </foxml:datastream>
</foxml:digitalObject>
