<?xml version="1.0" encoding="UTF-8"?>
<foxml:digitalObject xmlns:foxml="info:fedora/fedora-system:def/foxml#"
                     VERSION="1.1"
                     PID="uk-ac-man-scw:ma238">
   <foxml:objectProperties>
      <foxml:property NAME="info:fedora/fedora-system:def/model#state" VALUE="Active"/>
   </foxml:objectProperties>
   <foxml:datastream CONTROL_GROUP="X" ID="MODS" STATE="A" VERSIONABLE="true">
      <foxml:datastreamVersion CREATED="2015-05-19T17:06:30.648Z"
                               ID="MODS.0"
                               LABEL="Metadata Object Description Schema record"
                               MIMETYPE="text/xml"
                               SIZE="3550">
         <foxml:xmlContent>
            <mods:mods xmlns:mods="http://www.loc.gov/mods/v3"
                       xmlns:xsi="http://www.w3.org/2001/XMLSchema-instance"
                       version="3.3"
                       xsi:schemaLocation="http://www.loc.gov/mods/v3 http://www.loc.gov/standards/mods/v3/mods-3-3.xsd">
               <mods:abstract>This paper presents the results from four fire tests carried out on one-way spanning unbonded post-tensioned concrete floor slabs. The elevated temperature tests are augmented with the results from two additional tests carried out to failure, on slabs with identical geometry and tendon reinforcement, at ambient temperature. The fire tests highlighted the different structural response between using limestone and Thames gravel aggregates and different restraint conditions to longitudinal thermal expansion. It is shown that slabs with Thames gravel aggregates have a much higher deflection compared to slabs with limestone aggregates. The restrained slabs had lower vertical deflection compared to the equivalent unrestrained slabs. In all the fire tests, cracks directly inline and parallel to
the tendons occurred owing to thermal stresses at relatively low tendon temperatures, which were not observed in the ambient tests. In one fire test, which was taken to overall collapse, it was shown that the strength reduction factors for tendon reinforcement currently used in the European design codes is conservative. The test data, comprising tendon strains, vertical and horizontal displacements and temperatures through the slab, will allow validation of developed computer models to predict the behaviour of unbonded slabs under fire conditions.</mods:abstract>
               <mods:genre authority="local" type="content-type">journal-article</mods:genre>
               <mods:genre type="version">Original research</mods:genre>
               <mods:genre type="form">Academic journal article</mods:genre>
               <mods:language>
                  <mods:languageTerm authority="iso639-3" type="code">eng</mods:languageTerm>
               </mods:language>
               <mods:note type="authors">Colin Bailey, Ehab Ellobody</mods:note>
               <mods:originInfo>
                  <mods:dateIssued encoding="iso8601">2009</mods:dateIssued>
                  <mods:publisher>Thomas Telford Publishing</mods:publisher>
               </mods:originInfo>
               <mods:recordInfo>
                  <mods:recordCreationDate encoding="iso8601">2015-05-19T17:06:30.648+01:00</mods:recordCreationDate>
                  <mods:recordContentSource>Manchester eScholar</mods:recordContentSource>
               </mods:recordInfo>
               <mods:relatedItem type="host">
                  <mods:titleInfo>
                     <mods:title>Magazine of Concrete Research</mods:title>
                  </mods:titleInfo>
                  <mods:part>
                     <mods:detail type="issue">
                        <mods:number>1</mods:number>
                     </mods:detail>
                     <mods:detail type="volume">
                        <mods:number>61</mods:number>
                     </mods:detail>
                     <mods:extent unit="page">
                        <mods:start>67</mods:start>
                        <mods:end>76</mods:end>
                        <mods:total>9</mods:total>
                        <mods:list>67-76</mods:list>
                     </mods:extent>
                  </mods:part>
                  <mods:identifier type="issn">0024-9831</mods:identifier>
               </mods:relatedItem>
               <mods:relatedItem type="preceding">
                  <mods:titleInfo>
                     <mods:title/>
                  </mods:titleInfo>
                  <mods:identifier type="uri"/>
               </mods:relatedItem>
               <mods:titleInfo>
                  <mods:title>Fire Tests on Unbonded Post-Tensioned One-Way Concrete Slabs</mods:title>
               </mods:titleInfo>
               <mods:typeOfResource>text</mods:typeOfResource>
            </mods:mods>
         </foxml:xmlContent>
      </foxml:datastreamVersion>
   </foxml:datastream>
   <foxml:datastream CONTROL_GROUP="X" ID="RELS-EXT" STATE="A" VERSIONABLE="false">
      <foxml:datastreamVersion CREATED="2015-05-19T17:06:30.648Z"
                               ID="RELS-EXT.1"
                               LABEL="Relationships"
                               MIMETYPE="text/xml"
                               SIZE="920">
         <foxml:xmlContent>
            <rdf:RDF xmlns:esc-rel="http://www.escholar.manchester.ac.uk/esc/rel/v1#"
                     xmlns:rdf="http://www.w3.org/1999/02/22-rdf-syntax-ns#">
               <rdf:Description rdf:about="info:fedora/uk-ac-man-scw:ma238">
                  <esc-rel:isBelongsTo rdf:resource="info:fedora/uk-ac-man-per:abcde44"/>
                  <esc-rel:isBelongsTo rdf:resource="info:fedora/uk-ac-man-per:41507"/>
                  <esc-rel:isBelongsToOrg rdf:resource="info:fedora/uk-ac-man-org:1"/>
                  <esc-rel:isBelongsToOrg rdf:resource="info:fedora/uk-ac-man-org:16"/>
                  <esc-rel:isBelongsToOrg rdf:resource="info:fedora/uk-ac-man-org:223"/>
                  <esc-rel:isBelongsToOrg rdf:resource="info:fedora/uk-ac-man-org:5"/>
                  <esc-rel:isBelongsToOrg rdf:resource="info:fedora/uk-ac-man-org:25"/>
                  <esc-rel:isBelongsToOrg rdf:resource="info:fedora/uk-ac-man-org:139"/>
                  <esc-rel:isBelongsTo rdf:resource="info:fedora/uk-ac-man-per:61446"/>
                  <esc-rel:isCreatedBy rdf:resource="info:fedora/uk-ac-man-per:admin"/>
                  <esc-rel:isLastModifiedBy rdf:resource="info:fedora/uk-ac-man-per:admin"/>
                  <esc-rel:isDerivationOf rdf:resource="info:fedora/uk-ac-man-scw:base"/>
                  <esc-rel:isOfContenttype rdf:resource="info:fedora/uk-ac-man-con:1"/>
               </rdf:Description>
            </rdf:RDF>
         </foxml:xmlContent>
      </foxml:datastreamVersion>
   </foxml:datastream>
</foxml:digitalObject>
