<?xml version="1.0" encoding="UTF-8"?>
<foxml:digitalObject xmlns:foxml="info:fedora/fedora-system:def/foxml#"
                     VERSION="1.1"
                     PID="uk-ac-man-scw:ma349">
   <foxml:objectProperties>
      <foxml:property NAME="info:fedora/fedora-system:def/model#state" VALUE="Active"/>
   </foxml:objectProperties>
   <foxml:datastream CONTROL_GROUP="X" ID="MODS" STATE="A" VERSIONABLE="true">
      <foxml:datastreamVersion CREATED="2015-05-19T17:06:30.648Z"
                               ID="MODS.0"
                               LABEL="Metadata Object Description Schema record"
                               MIMETYPE="text/xml"
                               SIZE="3550">
         <foxml:xmlContent>
            <mods:mods xmlns:mods="http://www.loc.gov/mods/v3"
                       xmlns:xsi="http://www.w3.org/2001/XMLSchema-instance"
                       version="3.3"
                       xsi:schemaLocation="http://www.loc.gov/mods/v3 http://www.loc.gov/standards/mods/v3/mods-3-3.xsd">
               <mods:abstract>This work presents the development and implementation of a spray combustion model based on the spray size distribution moments approach to spray modelling. The governing equations for both the gas and liquid phases are solved by the finite volume method based on an Eulerian framework. The models employed in the auto-ignition and combustion analysis is the PDF-Eddy Break-Up model. This scheme is developed in order to effectively validate both ignition and combustion phases. It is designed to compromise between the chemical reaction rate dealing with the auto-ignition mode, and the turbulence reaction rate dominating the combustion mode via a reaction progress variable which represents the reaction level. These average reaction rate source terms in species transport equations are evaluated by a probability density function (pdf) averaging approach. This ignition and combustion model developed here is shown to have a high potential as a numerical tool for predicting the phenomena of spray combustion in diesel engines.</mods:abstract>
               <mods:genre authority="local" type="content-type">journal-article</mods:genre>
               <mods:genre type="version">Original research</mods:genre>
               <mods:genre type="form">Academic journal article</mods:genre>
               <mods:language>
                  <mods:languageTerm authority="iso639-3" type="code">eng</mods:languageTerm>
               </mods:language>
               <mods:note type="authors">I Dhuchakallaya, Paul Watkins</mods:note>
               <mods:originInfo>
                  <mods:dateIssued encoding="iso8601">2011</mods:dateIssued>
                  <mods:publisher>Professional Engineering Publishing</mods:publisher>
               </mods:originInfo>
               <mods:recordInfo>
                  <mods:recordCreationDate encoding="iso8601">2015-05-19T17:06:30.648+01:00</mods:recordCreationDate>
                  <mods:recordContentSource>Manchester eScholar</mods:recordContentSource>
               </mods:recordInfo>
               <mods:relatedItem type="host">
                  <mods:titleInfo>
                     <mods:title>International Journal of Engine Research</mods:title>
                  </mods:titleInfo>
                  <mods:part>
                     <mods:detail type="issue">
                        <mods:number>2</mods:number>
                     </mods:detail>
                     <mods:detail type="volume">
                        <mods:number>12</mods:number>
                     </mods:detail>
                     <mods:extent unit="page">
                        <mods:start>169 </mods:start>
                        <mods:end> 180</mods:end>
                        <mods:total>11</mods:total>
                        <mods:list>169 - 180</mods:list>
                     </mods:extent>
                  </mods:part>
                  <mods:identifier type="issn">1468-0874</mods:identifier>
               </mods:relatedItem>
               <mods:relatedItem type="preceding">
                  <mods:titleInfo>
                     <mods:title/>
                  </mods:titleInfo>
                  <mods:identifier type="uri"/>
               </mods:relatedItem>
               <mods:titleInfo>
                  <mods:title>Numerical modelling of Diesel spray combustion</mods:title>
               </mods:titleInfo>
               <mods:typeOfResource>text</mods:typeOfResource>
            </mods:mods>
         </foxml:xmlContent>
      </foxml:datastreamVersion>
   </foxml:datastream>
   <foxml:datastream CONTROL_GROUP="X" ID="RELS-EXT" STATE="A" VERSIONABLE="false">
      <foxml:datastreamVersion CREATED="2015-05-19T17:06:30.648Z"
                               ID="RELS-EXT.1"
                               LABEL="Relationships"
                               MIMETYPE="text/xml"
                               SIZE="920">
         <foxml:xmlContent>
            <rdf:RDF xmlns:esc-rel="http://www.escholar.manchester.ac.uk/esc/rel/v1#"
                     xmlns:rdf="http://www.w3.org/1999/02/22-rdf-syntax-ns#">
               <rdf:Description rdf:about="info:fedora/uk-ac-man-scw:ma349">
                  <esc-rel:isBelongsTo rdf:resource="info:fedora/uk-ac-man-per:39688"/>
                  <esc-rel:isBelongsToOrg rdf:resource="info:fedora/uk-ac-man-org:1"/>
                  <esc-rel:isBelongsToOrg rdf:resource="info:fedora/uk-ac-man-org:41"/>
                  <esc-rel:isBelongsToOrg rdf:resource="info:fedora/uk-ac-man-org:345"/>
                  <esc-rel:isCreatedBy rdf:resource="info:fedora/uk-ac-man-per:admin"/>
                  <esc-rel:isLastModifiedBy rdf:resource="info:fedora/uk-ac-man-per:admin"/>
                  <esc-rel:isDerivationOf rdf:resource="info:fedora/uk-ac-man-scw:base"/>
                  <esc-rel:isOfContenttype rdf:resource="info:fedora/uk-ac-man-con:1"/>
               </rdf:Description>
            </rdf:RDF>
         </foxml:xmlContent>
      </foxml:datastreamVersion>
   </foxml:datastream>
</foxml:digitalObject>
