<?xml version="1.0" encoding="UTF-8"?>
<foxml:digitalObject xmlns:foxml="info:fedora/fedora-system:def/foxml#"
                     VERSION="1.1"
                     PID="uk-ac-man-scw:ma550">
   <foxml:objectProperties>
      <foxml:property NAME="info:fedora/fedora-system:def/model#state" VALUE="Active"/>
   </foxml:objectProperties>
   <foxml:datastream CONTROL_GROUP="X" ID="MODS" STATE="A" VERSIONABLE="true">
      <foxml:datastreamVersion CREATED="2015-05-19T17:06:30.648Z"
                               ID="MODS.0"
                               LABEL="Metadata Object Description Schema record"
                               MIMETYPE="text/xml"
                               SIZE="3550">
         <foxml:xmlContent>
            <mods:mods xmlns:mods="http://www.loc.gov/mods/v3"
                       xmlns:xsi="http://www.w3.org/2001/XMLSchema-instance"
                       version="3.3"
                       xsi:schemaLocation="http://www.loc.gov/mods/v3 http://www.loc.gov/standards/mods/v3/mods-3-3.xsd">
               <mods:abstract>The Mode II crack flank displacement and crack growth responses of three precracked specimens made from structural steel were measured, using plastic replicas and a crack-tip compliance gage. Crack surface interaction was found to dominate behavior: at low stress intensity range (KIInom = 9 MPa m) the precracks did not suffer reversed slip to their tips and no crack growth occurred, while at high stress intensity range (KIInom = 19 MPa m) the effective stress intensity range was less than half that nominally applied. Three sources of crack flank frictional attenuation were identified: compressive residual stresses due to precracking, Mode I wedging over asperities, and gross plastic deformation of interlocking asperities. The measured unlocking response was modeled successfully by assuming that crack flank frictional stresses obeyed a constant interfacial shear stress friction law.

Keywords:

fatigue crack growth, Mode II, shear mode, steels, crack flank locking, crack flank slip, friction</mods:abstract>
               <mods:genre authority="local" type="content-type">journal-article</mods:genre>
               <mods:genre type="version">Original research</mods:genre>
               <mods:genre type="form">Academic journal article</mods:genre>
               <mods:language>
                  <mods:languageTerm authority="iso639-3" type="code">eng</mods:languageTerm>
               </mods:language>
               <mods:note type="authors">Michael Smith, R A Smith</mods:note>
               <mods:originInfo>
                  <mods:dateIssued encoding="iso8601">1988</mods:dateIssued>
                  <mods:publisher>Kern Energie</mods:publisher>
               </mods:originInfo>
               <mods:recordInfo>
                  <mods:recordCreationDate encoding="iso8601">2015-05-19T17:06:30.648+01:00</mods:recordCreationDate>
                  <mods:recordContentSource>Manchester eScholar</mods:recordContentSource>
               </mods:recordInfo>
               <mods:relatedItem type="host">
                  <mods:titleInfo>
                     <mods:title>ATW - International Journal for Nuclear Power</mods:title>
                  </mods:titleInfo>
                  <mods:part>
                     <mods:detail type="issue">
                        <mods:number>0</mods:number>
                     </mods:detail>
                     <mods:detail type="volume">
                        <mods:number>1</mods:number>
                     </mods:detail>
                     <mods:extent unit="page">
                        <mods:start>260</mods:start>
                        <mods:end>280</mods:end>
                        <mods:total>20</mods:total>
                        <mods:list>260-280</mods:list>
                     </mods:extent>
                  </mods:part>
                  <mods:identifier type="issn">1431-5254</mods:identifier>
               </mods:relatedItem>
               <mods:relatedItem type="preceding">
                  <mods:titleInfo>
                     <mods:title/>
                  </mods:titleInfo>
                  <mods:identifier type="uri"/>
               </mods:relatedItem>
               <mods:titleInfo>
                  <mods:title>Toward an understanding of Mode II fatigue crack growth</mods:title>
               </mods:titleInfo>
               <mods:typeOfResource>text</mods:typeOfResource>
            </mods:mods>
         </foxml:xmlContent>
      </foxml:datastreamVersion>
   </foxml:datastream>
   <foxml:datastream CONTROL_GROUP="X" ID="RELS-EXT" STATE="A" VERSIONABLE="false">
      <foxml:datastreamVersion CREATED="2015-05-19T17:06:30.648Z"
                               ID="RELS-EXT.1"
                               LABEL="Relationships"
                               MIMETYPE="text/xml"
                               SIZE="920">
         <foxml:xmlContent>
            <rdf:RDF xmlns:esc-rel="http://www.escholar.manchester.ac.uk/esc/rel/v1#"
                     xmlns:rdf="http://www.w3.org/1999/02/22-rdf-syntax-ns#">
               <rdf:Description rdf:about="info:fedora/uk-ac-man-scw:ma550">
                  <esc-rel:isBelongsTo rdf:resource="info:fedora/uk-ac-man-per:abcde39"/>
                  <esc-rel:isBelongsTo rdf:resource="info:fedora/uk-ac-man-per:abcde41"/>
                  <esc-rel:isBelongsTo rdf:resource="info:fedora/uk-ac-man-per:abcde42"/>
                  <esc-rel:isBelongsTo rdf:resource="info:fedora/uk-ac-man-per:abcde47"/>
                  <esc-rel:isBelongsTo rdf:resource="info:fedora/uk-ac-man-per:122666"/>
                  <esc-rel:isBelongsToOrg rdf:resource="info:fedora/uk-ac-man-org:1"/>
                  <esc-rel:isBelongsToOrg rdf:resource="info:fedora/uk-ac-man-org:41"/>
                  <esc-rel:isBelongsToOrg rdf:resource="info:fedora/uk-ac-man-org:203"/>
                  <esc-rel:isBelongsToOrg rdf:resource="info:fedora/uk-ac-man-org:1"/>
                  <esc-rel:isBelongsToOrg rdf:resource="info:fedora/uk-ac-man-org:41"/>
                  <esc-rel:isBelongsToOrg rdf:resource="info:fedora/uk-ac-man-org:347"/>
                  <esc-rel:isCreatedBy rdf:resource="info:fedora/uk-ac-man-per:admin"/>
                  <esc-rel:isLastModifiedBy rdf:resource="info:fedora/uk-ac-man-per:admin"/>
                  <esc-rel:isDerivationOf rdf:resource="info:fedora/uk-ac-man-scw:base"/>
                  <esc-rel:isOfContenttype rdf:resource="info:fedora/uk-ac-man-con:1"/>
               </rdf:Description>
            </rdf:RDF>
         </foxml:xmlContent>
      </foxml:datastreamVersion>
   </foxml:datastream>
</foxml:digitalObject>
