<?xml version="1.0" encoding="UTF-8"?>
<foxml:digitalObject xmlns:foxml="info:fedora/fedora-system:def/foxml#"
                     VERSION="1.1"
                     PID="uk-ac-man-scw:ma435">
   <foxml:objectProperties>
      <foxml:property NAME="info:fedora/fedora-system:def/model#state" VALUE="Active"/>
   </foxml:objectProperties>
   <foxml:datastream CONTROL_GROUP="X" ID="MODS" STATE="A" VERSIONABLE="true">
      <foxml:datastreamVersion CREATED="2015-05-19T17:06:30.648Z"
                               ID="MODS.0"
                               LABEL="Metadata Object Description Schema record"
                               MIMETYPE="text/xml"
                               SIZE="3550">
         <foxml:xmlContent>
            <mods:mods xmlns:mods="http://www.loc.gov/mods/v3"
                       xmlns:xsi="http://www.w3.org/2001/XMLSchema-instance"
                       version="3.3"
                       xsi:schemaLocation="http://www.loc.gov/mods/v3 http://www.loc.gov/standards/mods/v3/mods-3-3.xsd">
               <mods:abstract>A characterization of hyporheic exchange for dry and wet season baseflow, as well as partially dewatered discharge, was done in Prieta Creek, a first-order cascade in northern Honduras. The cascade had discharges from 1 to 15 l s1, had average slopes of 12%, pool spacing of 3 m, and shallow substrate of sand and gravel. Tracer tests were conducted in a 15-m sub-reach, a length considered to be adequate for the experiment based on the DaI test, a ratio of exchange and transport processes. In the three tests, between 9 and 18% of tracer was not recovered, possibly due to entrainment in flowpaths passing beneath the downstream monitoring location. Tracer data were analysed by the one-dimensional transport with inflow and storage (OTIS) transient storage model (TSM) to derive standard exchange parameters, and by the solute transport in rivers (STIR) model to examine hyporheic residence time distributions (RTDs). The best fit of the observed tracer breakthrough curves was obtained by using the STIR model with a combination of two exponential RTDs to represent hyporheic retention. With increasing discharge, the OTIS model predicted increasing storage exchange fluxes and exchange coefficients and decreasing storage zone areas and transient storage times, which are trends supported by riparian and streambed piezometric head data. Riparian water levels rose during the transition from the dry to wet season, which could constrict the hyporheic storage zone. Thirteen of the 19 streambed piezometers recorded seasonal changes in hydraulic gradients and flux direction, with fewer yet stronger upwelling zones during higher discharges. The MODFLOW model missed the observed seasonal changes, possibly due to subtle changes in the seasonal change in water surface profiles. We conclude that partially dewatered dry season exchange, compared to wet season exchange, was initiated and terminated with smaller pressure gradients and, in different streambed locations, was smaller in volume, had longer residence times, and may connect with deeper and longer flow paths.</mods:abstract>
               <mods:genre authority="local" type="content-type">journal-article</mods:genre>
               <mods:genre type="version">Original research</mods:genre>
               <mods:genre type="form">Academic journal article</mods:genre>
               <mods:language>
                  <mods:languageTerm authority="iso639-3" type="code">eng</mods:languageTerm>
               </mods:language>
               <mods:note type="authors">Andrea Bottacin-Busolin, LK Lautz, MW Fabian, TA Endreny</mods:note>
               <mods:originInfo>
                  <mods:dateIssued encoding="iso8601">2011</mods:dateIssued>
                  <mods:publisher>John Wiley and Sons</mods:publisher>
               </mods:originInfo>
               <mods:recordInfo>
                  <mods:recordCreationDate encoding="iso8601">2015-05-19T17:06:30.648+01:00</mods:recordCreationDate>
                  <mods:recordContentSource>Manchester eScholar</mods:recordContentSource>
               </mods:recordInfo>
               <mods:relatedItem type="host">
                  <mods:titleInfo>
                     <mods:title>Hydrological Processes</mods:title>
                  </mods:titleInfo>
                  <mods:part>
                     <mods:detail type="issue">
                        <mods:number>0</mods:number>
                     </mods:detail>
                     <mods:detail type="volume">
                        <mods:number>25</mods:number>
                     </mods:detail>
                     <mods:extent unit="page">
                        <mods:start>1630</mods:start>
                        <mods:end>1646</mods:end>
                        <mods:total>16</mods:total>
                        <mods:list>1630-1646</mods:list>
                     </mods:extent>
                  </mods:part>
                  <mods:identifier type="issn">0885-6087</mods:identifier>
               </mods:relatedItem>
               <mods:relatedItem type="preceding">
                  <mods:titleInfo>
                     <mods:title/>
                  </mods:titleInfo>
                  <mods:identifier type="uri"/>
               </mods:relatedItem>
               <mods:titleInfo>
                  <mods:title>Seasonal variation in cascade-driven hyporheic exchange, northern Honduras</mods:title>
               </mods:titleInfo>
               <mods:typeOfResource>text</mods:typeOfResource>
            </mods:mods>
         </foxml:xmlContent>
      </foxml:datastreamVersion>
   </foxml:datastream>
   <foxml:datastream CONTROL_GROUP="X" ID="RELS-EXT" STATE="A" VERSIONABLE="false">
      <foxml:datastreamVersion CREATED="2015-05-19T17:06:30.648Z"
                               ID="RELS-EXT.1"
                               LABEL="Relationships"
                               MIMETYPE="text/xml"
                               SIZE="920">
         <foxml:xmlContent>
            <rdf:RDF xmlns:esc-rel="http://www.escholar.manchester.ac.uk/esc/rel/v1#"
                     xmlns:rdf="http://www.w3.org/1999/02/22-rdf-syntax-ns#">
               <rdf:Description rdf:about="info:fedora/uk-ac-man-scw:ma435">
                  <esc-rel:isBelongsTo rdf:resource="info:fedora/uk-ac-man-per:abcde41"/>
                  <esc-rel:isBelongsTo rdf:resource="info:fedora/uk-ac-man-per:130517"/>
                  <esc-rel:isBelongsToOrg rdf:resource="info:fedora/uk-ac-man-org:1"/>
                  <esc-rel:isBelongsToOrg rdf:resource="info:fedora/uk-ac-man-org:41"/>
                  <esc-rel:isBelongsToOrg rdf:resource="info:fedora/uk-ac-man-org:347"/>
                  <esc-rel:isCreatedBy rdf:resource="info:fedora/uk-ac-man-per:admin"/>
                  <esc-rel:isLastModifiedBy rdf:resource="info:fedora/uk-ac-man-per:admin"/>
                  <esc-rel:isDerivationOf rdf:resource="info:fedora/uk-ac-man-scw:base"/>
                  <esc-rel:isOfContenttype rdf:resource="info:fedora/uk-ac-man-con:1"/>
               </rdf:Description>
            </rdf:RDF>
         </foxml:xmlContent>
      </foxml:datastreamVersion>
   </foxml:datastream>
</foxml:digitalObject>
