﻿window-id,name,spot-id,submission-type,admin,expected-close-date,email
uk-ac-man-etd:38860,Elliot Cooksey-Nash,9471111,Doctoral level ETD - examination (first submission),"Faculty of Science and Engineering, Thesis Support",31/07/2023,elliot.cooksey-nash@manchester.ac.uk
uk-ac-man-etd:39190,Paul Twine,10401382,Doctoral level ETD - examination (first submission),"Faculty of Science and Engineering, Thesis Support",16/07/2023,paul.twine@postgrad.manchester.ac.uk
uk-ac-man-etd:39228,Philip Kearns,10224862,Doctoral level ETD - examination (re-submission),"Faculty of Science and Engineering, Thesis Support",24/07/2023,philip.kearns@manchester.ac.uk
uk-ac-man-etd:39245,Steven Mayers,10325179,Doctoral level ETD - examination (first submission),"Doctoral Academy, Thesis Support",14/07/2023,steven.mayers@cruk.manchester.ac.uk
uk-ac-man-etd:39299,Jessica Moulton,8380944,Doctoral level ETD - examination (first submission),"Faculty of Science and Engineering, Thesis Support",31/07/2023,jessica.moulton@manchester.ac.uk
uk-ac-man-etd:39318,Rachel Anne Crompton,8114459,Doctoral level ETD - examination (first submission),"Doctoral Academy, Thesis Support",31/07/2023,rachelanne.crompton@manchester.ac.uk
uk-ac-man-etd:39326,Emma Stevenson,5824789,Doctoral level ETD - examination (first submission),"Doctoral Academy, Thesis Support",31/07/2023,emma.reynolds@postgrad.manchester.ac.uk
uk-ac-man-etd:39407,Kristian Gurashi,10436607,Doctoral level ETD - examination (first submission),"Smith, Luke",21/07/2023,kristian.gurashi@postgrad.manchester.ac.uk
uk-ac-man-etd:39408,Lujain Almohammadi,10450560,Doctoral level ETD - examination (first submission),"Smith, Luke",21/07/2023,lujain.almohammadi-2@postgrad.manchester.ac.uk
uk-ac-man-etd:39419,Reem Al Shidhani,10386882,Doctoral level ETD - examination (first submission),"Smith, Luke",21/07/2023,reem.al-shidhani@postgrad.manchester.ac.uk
uk-ac-man-etd:39441,James Stratford,10420316,Doctoral level ETD - examination (first submission),"Doctoral Academy, Thesis Support",21/07/2023,James.Stratford@cruk.manchester.ac.uk
uk-ac-man-etd:39444,Tong Wu,10177566,Doctoral level ETD - examination (first submission),"Faculty of Science and Engineering, Thesis Support",31/07/2023,tong.wu-4@postgrad.manchester.ac.uk
uk-ac-man-etd:39448,Alexander Pressley,8358484,Doctoral level ETD - examination (re-submission),"Faculty of Science and Engineering, Thesis Support",24/07/2023,alexander.pressley@postgrad.manchester.ac.uk
uk-ac-man-etd:39466,Natalie Ilsley,10517295,Doctoral level ETD - examination (first submission),"Doctoral Academy, Humanities",31/07/2023,natalie.ilsley@postgrad.manchester.ac.uk
uk-ac-man-etd:39469,Rehab Alghamdi,10323029,Doctoral level ETD - examination (first submission),"Breen, Ian",31/07/2023,rehab.alghamdi@manchester.ac.uk
uk-ac-man-etd:39474,Ryan Euesden,10400452,Doctoral level ETD - examination (first submission),"Faculty of Science and Engineering, Thesis Support",21/07/2023,ryan.euesden@postgrad.manchester.ac.uk
uk-ac-man-etd:39475,Atefeh Heydari,10156623,Doctoral level ETD - examination (first submission),"Faculty of Science and Engineering, Thesis Support",31/07/2023,atefeh.heydari@manchester.ac.uk
uk-ac-man-etd:39485,Amina Gamlo,9292314,Doctoral level ETD - examination (first submission),"Leung, Cherie",21/07/2023,amina.gamlo@postgrad.manchester.ac.uk
uk-ac-man-etd:39487,Dalal Alzahrani,10140938,Doctoral level ETD - examination (first submission),"Leung, Cherie",21/07/2023,dalal.alzahrani@postgrad.manchester.ac.uk
uk-ac-man-etd:39484,Buhari Ardo,8491820,Doctoral level ETD - examination (first submission),"Leung, Cherie",21/07/2023,buhari.ardo@postgrad.manchester.ac.uk
uk-ac-man-etd:39482,Christopher Castle,9170053,Doctoral level ETD - examination (first submission),"Leung, Cherie",21/07/2023,christopher.castle@postgrad.manchester.ac.uk
uk-ac-man-etd:39486,Holly Perrett,9438866,Doctoral level ETD - examination (first submission),"Leung, Cherie",21/07/2023,holly.perrett@postgrad.manchester.ac.uk
uk-ac-man-etd:39483,Nischal Rai,8452798,Doctoral level ETD - examination (first submission),"Leung, Cherie",21/07/2023,nischal.rai@manchester.ac.uk
uk-ac-man-etd:39481,Eu Pin Tien,8557358,Doctoral level ETD - examination (first submission),"Leung, Cherie",21/07/2023,eupin.tien@postgrad.manchester.ac.uk
uk-ac-man-etd:39489,Esraa Almutawa,8564569,Doctoral level ETD - examination (first submission),"Doctoral Academy, Thesis Support",31/07/2023,esraa.almutawa@postgrad.manchester.ac.uk
uk-ac-man-etd:39495,Claudia Lorena Compean Gonzalez,10245904,Doctoral level ETD - examination (re-submission),"Calland, Janine",21/07/2023,claudialorena.compeangonzalez@postgrad.manchester.ac.uk
uk-ac-man-etd:39501,Ana Wheeler,10330176,Doctoral level ETD - examination (first submission),"Leung, Cherie",21/07/2023,ana.wheeler@postgrad.manchester.ac.uk
uk-ac-man-etd:39500,Dean Walmsley,8934721,Doctoral level ETD - final,"Calland, Janine",19/07/2023,dean.walmsley@manchester.ac.uk
uk-ac-man-etd:39507,Jiahan Shen,10979799,Doctoral level ETD - examination (first submission),"Canteri, Jenni",31/07/2023,jiahan.shen@postgrad.manchester.ac.uk
uk-ac-man-etd:39502,Ella Schaefer,9482501,Doctoral level ETD - examination (first submission),"Leung, Cherie",21/07/2023,ella.schaefer@postgrad.manchester.ac.uk
uk-ac-man-etd:39505,Shuang Hu,9197924,Doctoral level ETD - final,"Leung, Cherie",19/07/2023,shuang.hu@postgrad.manchester.ac.uk
uk-ac-man-etd:39508,Thomas Paul Fitzpatrick,9891885,Doctoral level ETD - final,"Richardson, Clare",19/07/2023,
uk-ac-man-etd:39509,Jane Reeves,7279263,Doctoral level ETD - final,"Leung, Cherie",19/07/2023,jane.reeves-3@manchester.ac.uk
uk-ac-man-etd:39513,Siham Al Hadhrami,8187837,Doctoral level ETD - examination (re-submission),"Calland, Janine",20/07/2023,siham.alhadhrami-2@postgrad.manchester.ac.uk
uk-ac-man-etd:39528,Maximilian Hölzl,8544732,Doctoral level ETD - examination (first submission),"Bundy-Palmer, Sandra",12/07/2023,maximilian.holzl@postgrad.manchester.ac.uk
uk-ac-man-etd:39526,Godfred Amankwaa,10551520,Doctoral level ETD - final,"Chen, Zhichao",21/07/2023,godfred.amankwaa@manchester.ac.uk
uk-ac-man-etd:39530,Juehua Wang,10480861,Doctoral level ETD - examination (first submission),"Leung, Cherie",21/07/2023,juehua.wang@postgrad.manchester.ac.uk
uk-ac-man-etd:39539,Osagie Akhigbe-Midu,10485009,Doctoral level ETD - final,"Leung, Cherie",24/07/2023,osagie.akhigbe-midu@manchester.ac.uk
uk-ac-man-etd:39540,Victoria Hirst,10388241,Doctoral level ETD - final,"Chen, Zhichao",12/07/2023,victoria.hirst@postgrad.manchester.ac.uk
uk-ac-man-etd:39537,Dionysios Klaoudatos,10240656,Doctoral level ETD - final,"Leung, Cherie",24/07/2023,dionysios.klaoudatos@manchester.ac.uk
uk-ac-man-etd:39542,Eu Pin Tien,8557358,Doctoral level ETD - examination (first submission),"Faculty of Science and Engineering, Thesis Support",21/07/2023,eupin.tien@postgrad.manchester.ac.uk
uk-ac-man-etd:39544,Xiaoshuai Fan,9284067,Doctoral level ETD - examination (first submission),"Faculty of Science and Engineering, Thesis Support",21/07/2023,xiaoshuai.fan@postgrad.manchester.ac.uk
uk-ac-man-etd:39545,Thomas Sullivan,9316853,Doctoral level ETD - final,"Pullan, Jessica",24/07/2023,thomas.sullivan@postgrad.manchester.ac.uk
uk-ac-man-etd:39547,Chris Waugh,9970145,Doctoral level ETD - examination (first submission),"Doctoral Academy, Humanities",28/07/2023,chris.waugh-2@manchester.ac.uk
uk-ac-man-etd:39546,Matthew Daly,10329278,Doctoral level ETD - final,"Canteri, Jenni",24/07/2023,matthew.daly-2@manchester.ac.uk
uk-ac-man-etd:39550,Jose Pedro Nunes Da silva torres,10414125,Doctoral level ETD - final,"Leung, Cherie",19/07/2023,josepedro.nunesdesilvatorres@manchester.ac.uk
uk-ac-man-etd:39552,Sarah Craig,9578048,Doctoral level ETD - final,"Canteri, Jenni",20/07/2023,sarah.craig-2@cruk.manchester.ac.uk
uk-ac-man-etd:39553,Jack Fleet,9457342,Doctoral level ETD - final,"Leung, Cherie",25/07/2023,jack.fleet@manchester.ac.uk
uk-ac-man-etd:39554,Zihan Huang,10979713,Doctoral level ETD - final,"Leung, Cherie",25/07/2023,zihan.h@postgrad.manchester.ac.uk
uk-ac-man-etd:39560,Emily Bradley,9521471,Doctoral level ETD - final,"Canteri, Jenni",25/07/2023,emily.bradley-4@postgrad.manchester.ac.uk
uk-ac-man-etd:39564,Ashley Ayckbourne,10414533,Doctoral level ETD - final,"Leung, Cherie",26/07/2023,ashley.ayckbourne@manchester.ac.uk
uk-ac-man-etd:39566,Jacob Curran-Sebastian,9445830,Doctoral level ETD - final,"Leung, Cherie",26/07/2023,jacob.curran-sebastian@manchester.ac.uk
uk-ac-man-etd:39565,Nicola Airey,10807503,Doctoral level ETD - final,"Canteri, Jenni",26/07/2023,nicola.airey@postgrad.manchester.ac.uk
uk-ac-man-etd:39568,Tristan Martin,10398818,Doctoral level ETD - examination (first submission),"Martin, Tristan",15/07/2023,tristan.martin@manchester.ac.uk
uk-ac-man-etd:39569,Jessica Hyde,10251477,Doctoral level ETD - final,"Leung, Cherie",26/07/2023,jessica.hyde-2@postgrad.manchester.ac.uk
