<?xml version="1.0" encoding="UTF-8"?>
<foxml:digitalObject xmlns:foxml="info:fedora/fedora-system:def/foxml#"
                     xmlns:xsi="http://www.w3.org/2001/XMLSchema-instance"
                     VERSION="1.1"
                     xsi:schemaLocation="info:fedora/fedora-system:def/foxml# http://www.fedora.info/definitions/1/0/foxml1-1.xsd"
                     PID="uk-ac-man-scw:jp019">
   <foxml:objectProperties>
      <foxml:property NAME="info:fedora/fedora-system:def/model#state" VALUE="Active"/>
   </foxml:objectProperties>
   <foxml:datastream CONTROL_GROUP="X" ID="MODS" STATE="A" VERSIONABLE="true">
      <foxml:datastreamVersion CREATED="2015-10-12T14:50:18.489Z"
                               ID="MODS.0"
                               LABEL="Metadata Object Description Schema record"
                               MIMETYPE="text/xml"
                               SIZE="3241">
         <foxml:xmlContent>
            <mods:mods xmlns:ev="http://www.w3.org/2001/xml-events"
                       xmlns:exf="http://www.exforms.org/exf/1-0"
                       xmlns:f="http://orbeon.org/oxf/xml/formatting"
                       xmlns:fr="http://orbeon.org/oxf/xml/form-runner"
                       xmlns:mods="http://www.loc.gov/mods/v3"
                       xmlns:widget="http://orbeon.org/oxf/xml/widget"
                       xmlns:xforms="http://www.w3.org/2002/xforms"
                       xmlns:xhtml="http://www.w3.org/1999/xhtml"
                       xmlns:xi="http://www.w3.org/2001/XInclude"
                       xmlns:xs="http://www.w3.org/2001/XMLSchema"
                       xmlns:xxforms="http://orbeon.org/oxf/xml/xforms"
                       xmlns:xxi="http://orbeon.org/oxf/xml/xinclude"
                       version="3.3">
               <mods:abstract>Mr NISHIKAWA Shingoro talks about his childhood, education and youth in Ohmihachiman, Shiga prefecture, between 1923 and 1945</mods:abstract>
               <mods:genre authority="local" type="content-type">composition</mods:genre>
               <mods:genre type="version">Sound recording</mods:genre>
               <mods:language>
                  <mods:languageTerm authority="iso639-3" type="code">eng</mods:languageTerm>
               </mods:language>
               <mods:note type="general"/>
               <mods:note type="authors"/>
               <mods:originInfo>
                  <mods:dateIssued encoding="iso8601">2012-10-16</mods:dateIssued>
                  <mods:place>
                     <mods:placeTerm>Manchester, UK</mods:placeTerm>
                  </mods:place>
                  <mods:publisher>Manchester University</mods:publisher>
               </mods:originInfo>
               <mods:recordInfo>
                  <mods:recordCreationDate encoding="iso8601">2015-10-12T14:50:18.489+01:00</mods:recordCreationDate>
                  <mods:recordContentSource>Manchester eScholar</mods:recordContentSource>
               </mods:recordInfo>
               <mods:relatedItem type="otherFormat">
                  <mods:note type="performers">Mr NISHIKAWA Shingoro (male, born 1923) 西川新五良氏（男性・1923年生まれ）</mods:note>
                  <mods:originInfo>
                     <mods:dateOther encoding="iso8601">2012-10-16</mods:dateOther>
                     <mods:place>
                        <mods:placeTerm>Interviewee's house, Ohmihachiman, Shiga prefecture</mods:placeTerm>
                     </mods:place>
                  </mods:originInfo>
                  <mods:titleInfo>
                     <mods:title/>
                  </mods:titleInfo>
               </mods:relatedItem>
               <mods:relatedItem type="constituent">
                  <mods:physicalDescription>
                     <mods:extent>1</mods:extent>
                  </mods:physicalDescription>
               </mods:relatedItem>
               <mods:subject/>
               <mods:titleInfo type="translated" xml:lang="jpn">
                  <mods:title/>
               </mods:titleInfo>
               <mods:typeOfResource>sound recording</mods:typeOfResource>
            </mods:mods>
         </foxml:xmlContent>
      </foxml:datastreamVersion>
   </foxml:datastream>
   <foxml:datastream CONTROL_GROUP="X" ID="RELS-EXT" STATE="A" VERSIONABLE="false">
      <foxml:datastreamVersion CREATED="2015-10-12T14:50:18.489Z"
                               ID="RELS-EXT.1"
                               LABEL="Relationships"
                               MIMETYPE="text/xml"
                               SIZE="973">
         <foxml:xmlContent>
            <rdf:RDF xmlns:esc-rel="http://www.escholar.manchester.ac.uk/esc/rel/v1#"
                     xmlns:rdf="http://www.w3.org/1999/02/22-rdf-syntax-ns#">
               <rdf:Description rdf:about="info:fedora/uk-ac-man-scw:jp019">
                  <esc-rel:isBelongsTo rdf:resource="info:fedora/uk-ac-man-per:abcde51"/>
                  <esc-rel:isCreatedBy rdf:resource="info:fedora/uk-ac-man-per:admin"/>
                  <esc-rel:isLastModifiedBy rdf:resource="info:fedora/uk-ac-man-per:admin"/>
                  <esc-rel:isDerivationOf rdf:resource="info:fedora/uk-ac-man-scw:base"/>
                  <esc-rel:isOfContenttype rdf:resource="info:fedora/uk-ac-man-con:7"/>
               </rdf:Description>
            </rdf:RDF>
         </foxml:xmlContent>
      </foxml:datastreamVersion>
   </foxml:datastream>
</foxml:digitalObject>
