<?xml version="1.0" encoding="UTF-8"?>
<foxml:digitalObject xmlns:foxml="info:fedora/fedora-system:def/foxml#"
                     xmlns:xsi="http://www.w3.org/2001/XMLSchema-instance"
                     VERSION="1.1"
                     xsi:schemaLocation="info:fedora/fedora-system:def/foxml# http://www.fedora.info/definitions/1/0/foxml1-1.xsd"
                     PID="uk-ac-man-scw:ths0027">
   <foxml:objectProperties>
      <foxml:property NAME="info:fedora/fedora-system:def/model#state" VALUE="Active"/>
   </foxml:objectProperties>
   <foxml:datastream CONTROL_GROUP="X" ID="MODS" STATE="A" VERSIONABLE="true">
      <foxml:datastreamVersion CREATED="2017-02-10T16:09:30.065Z"
                               ID="MODS.0"
                               LABEL="Metadata Object Description Schema record"
                               MIMETYPE="text/xml"
                               SIZE="4986">
         <foxml:xmlContent>
            <mods:mods xmlns:ev="http://www.w3.org/2001/xml-events"
                       xmlns:exf="http://www.exforms.org/exf/1-0"
                       xmlns:f="http://orbeon.org/oxf/xml/formatting"
                       xmlns:fr="http://orbeon.org/oxf/xml/form-runner"
                       xmlns:mods="http://www.loc.gov/mods/v3"
                       xmlns:widget="http://orbeon.org/oxf/xml/widget"
                       xmlns:xforms="http://www.w3.org/2002/xforms"
                       xmlns:xhtml="http://www.w3.org/1999/xhtml"
                       xmlns:xi="http://www.w3.org/2001/XInclude"
                       xmlns:xs="http://www.w3.org/2001/XMLSchema"
                       xmlns:xxforms="http://orbeon.org/oxf/xml/xforms"
                       xmlns:xxi="http://orbeon.org/oxf/xml/xinclude"
                       version="3.3">
               <mods:abstract>This thesis is concerned with educational drama practices
and the British form of Theatre in Education (TIE). The
research has been undertaken with special regard to the
potential of educational drama for Kenya and how the
participatory nature of those practices offers new paradigms
in education. Educational drama practices include forms
such as dance, music, instrumentation, mime and story
telling. The participatory research approach provided
opportunities for these art forms into a public expression
through the process of their performances.
Section One is concerned with current theory and different
practices in educational drama. It begins by tracing the
wider theoretical issues and puts in perspective terms used
in drama and theatre work within the educational spectrum.
The areas of culture, education and contemporary theatre
practices in Kenya are surveyed and the basis for their
existence is established. within the main chronological
thrust the study develops along generic lines: the state of
educational drama in Kenya is explored; Oral Literature as a
major intervention in performance forms is discussed and the
Drama Festival as a major cultural and educational occurance
over the past forty years is given as a prime example.
TIE theory and practice has had a seminal influence on
theatre writing and performances in Kenya. This part of the
thesis evaluates the nature and function of TIE and provides
case studies of TIE programmes that examine concepts,
techniques, and TIE critical methodology. It is suggested
that TIE strategies and dramatic devices have parallels with
the story telling tradition which is viewed as a
participatory and performance mode. At the end of this
section it is pointed out that the relevance of these
dramatic devices are manifested as elements of educational
drama.
section Two focuses on performances observed which
illustrate how Drama functions as a mode of Creative
learning and as an instrument for social change. Case
studies of programmes devised to develop language skills,
create social awareness, and change attitudes are provided.
They point to the need for a more creative approach to
education and make apparent in the programmes the impact of
a synthesis of education and the creative arts. The Drama
Festival Performances are illustrations of emerging forms of
writing, performance techniques, audience developments and a
cul,tural intervention within the educational establishment
that locates the cutting edge for the future prospect of
Kenyan Theatre.
</mods:abstract>
               <mods:genre type="content-type" authority="local">thesis</mods:genre>
               <mods:genre type="version">Alternative format</mods:genre>
               <mods:note type="authors">Mumma, Opiyo John</mods:note>
               <mods:note type="degreelevel">Doctor of Philosophy</mods:note>
               <mods:originInfo>
                  <mods:dateIssued encoding="iso8601">1994</mods:dateIssued>
                  <mods:place>
                     <mods:placeTerm>Manchester, UK</mods:placeTerm>
                  </mods:place>
                  <mods:publisher>University of Manchester</mods:publisher>
               </mods:originInfo>
               <mods:part>
                  <mods:extent unit="page">
                     <mods:total/>
                  </mods:extent>
               </mods:part>
               <mods:recordInfo>
                  <mods:recordCreationDate encoding="iso8601">2017-02-10T16:09:30.065Z</mods:recordCreationDate>
                  <mods:recordContentSource>Manchester eScholar</mods:recordContentSource>
               </mods:recordInfo>
               <mods:subject>
                  <mods:topic>Art</mods:topic>
                  <mods:topic>Culture</mods:topic>
                  <mods:topic>Education</mods:topic>
                  <mods:topic>Drama</mods:topic>
                  <mods:topic>Education</mods:topic>
                  <mods:topic>Drama</mods:topic>
                  <mods:topic>Education</mods:topic>
                  <mods:topic>Kenya</mods:topic>
                  <mods:topic>Drama in education</mods:topic>
                  <mods:topic>Great Britain</mods:topic>
                  <mods:topic>Drama in education</mods:topic>
                  <mods:topic>Kenya</mods:topic>
                  <mods:topic>Theatre in education (Bristol, England)</mods:topic>
               </mods:subject>
               <mods:titleInfo>
                  <mods:title>In search of a Kenyan theatre : the theory and practice of educational drama and its potential for Kenya.</mods:title>
               </mods:titleInfo>
               <mods:tableOfContents>CONTENTS
ABSTRACT
DECLARATION
DEDICATION
ACKNOWLEDGEMENTS
PREFACE
LIST OF ABBREVIATIONS
GENERAL INTRODUCTION
SECTION ONE
1.0 CHAPTER ONE:
LITERATURE REVIEW
1.1 Literature Review: Educational Drama
1.2 Theorists in the Field of Critical
Pedagogy
1.3 Theoretical Influences on DIE/TIE
1.4 critical Methodology from Africa
1.5 Concluding Remarks
2.0 CHAPTER TWO:
CULTURE &amp; EDUCATION IN GENERAL &amp; IN
KENYA IN PARTICULAR
2.1 Background and Historical Overview
2.2 Culture
2.3 Christianity
2.4 Socialisation As Education
2.5 Other forms of Cultural Expression
2
7
8
9
10
13
14
15
40
40
40
55
66
76
88
92
92
98
99
104
108
2.6 Formal Education Before Independence 110
2.7 Education in Kenya From 1963 to
The Present 112
2.8 A Major Shift 119
2.9 Concluding Remarks 124
3.0 CHAPTER THREE;
AN HISTORICAL BACKGROUND TO
CONTEMPORARY KENYAN THEATRE
126
3.1 An Historical Starting Point 126
3.2 The Kenya National Theatre - 1950-1968 129
3.3 The Role of The KNT in the
Post-Independent Era 135
3.4 Aspects of Policy and Funding for KNT 143
3.5 The Theatre School 144
3.6 Emerging Theatre Forms in the 1970's
and 1980's 149
3.7 The Development of Political and
Community Theatre Forms 153
3.8 Concluding Remarks 176
4.0 CHAPTER FOUR;
EDUCATIONAL DRAMA PRACTISES
IN KENYA
180
4.1 The Influence of Shakespeare 181
4.2 The Teaching of Oral Literature 188
4.3 Drama in Schools 193
4.4 The Primary schools Enquiry 193
4.5 Drama and Theatre Activities In
Secondary Schools 199
4.6 Theatre and Drama in colleges 202
4.7 Theatre and Drama in the Universities 203
3
4.8
4.9
4.10
4.11
4.12
4.13
4.14
4.15
4.16
4.17
4.18
4.19
4.20
5.0
5.1
5.2
5.3
5.4
5.5
5.6
5.7
5.8
5.9
The Performing and Creative Arts Centre 205
other Training Facilities for Drama and
Theatre 206
The Nairobi Theatre Academy 207
Bomas of Kenya 208
The Drama Festival 210
The Drama Festival In The Post
Independent Period 213
Glimpses of Change 215
The 1975-1982 Phase 219
Interfaces with Other Cultural
Activities 222
The 1982-1993 Period 226
Item Categorization In The Festival 229
Spill-over Effects of The Drama Festival 240
Concluding Remarks 242
CHAPTER FIVE; 244
A CRITICAL EVALUATION OF THE
NATURE AND FUNCTION OF THEATRE
IN EPUCATION IN BRITAIN
The Origins of TIE 245
Nature and Aims of TIE 248
Devising A TIE Programme 251
The Belgrade TIE: 1965-1970 262
New Directions For The Belgrade TIE
and the TIE Movement: The Early 1970's 267
Through Growth and Change 1975-1985 269
Examples of Practice in the 1990's 275
Blood and Honey: A Case Study 276
Concluding Remarks 288
4
6.0 CHAPTER SIX: 289
FURTHER INSIGHTS INTO TIE
PRACTICE
6.1 Lancaster TIE: Indigo 293
6.2 pit Prop TIE: Angel 303
6.3 The Relevance of TIE to Kenya 315
6.4 Concluding Remarks 319
SECTIOM TWO 321
7.0 CHAPTER SEVEN:
DRAMA AND THEATRE AS MODES OF
CREATIVE LEARNING
321
7.1 Learning and Change 322
7.2 Popular and Participatory Education 328
7.3 ~nata: A Case Study of A Play
In The Quest for Change 333
7.4 The Environmental Education Project:
The Use of Drama Methods to Raise Social
Awareness 341
7.5 Lie Of The Land: An example of a
TIE programme devised to teach language
skills 347
7.6 Concluding Remarks 375
8.0 CllAPI'EREIGHT: 377
THE CUTTING EDGE OF KENYAN
THEATRE
8.1 Gathering the Material 378
8.2 Methodological Implications 382
8.3 Texture of The Drama Festival Performance384
8.4 Creative Dances 386
8.5 The Drama Festival Play 389
5
8.6 Festival Themes 394
8.7 Interfaces with Other Experiences 397
8.8 Lessons from Case Studies 399
8.9 Is There an Authentic Kenyan Theatre
Tradition? 406
8.10 Defining A Theatrical Educational Model 411
8.11 Concluding Remarks 428
CONCLUSION 429
BIBLIOGRAPHY 436
APPEHQICES
APPENDIX ONE: QUESTIONNAIRES TO 452
THEORISTS, PRACTITIONERS,
INSTITUTIONAL DRAMA THEATRE
GROUPS AND AUDIENCES.
APPENDIX TWO: THE DRAMA FESTIVAL GUIDELINES 480
APPENDIX THREE: A DRAFT NATIONAL CULTURAL 491
POLICY FOR KENYA.
APPENDIX FOUR: A STORY FOR OUR TIME. 515
6</mods:tableOfContents>
               <mods:typeOfResource>text</mods:typeOfResource>
            </mods:mods>
         </foxml:xmlContent>
      </foxml:datastreamVersion>
   </foxml:datastream>
   <foxml:datastream CONTROL_GROUP="M"
                     STATE="A"
                     VERSIONABLE="true"
                     ID="Fulltext.pdf">
      <foxml:datastreamVersion CREATED="2017-02-10T16:09:30.065Z"
                               ID="Fulltext.pdf.0"
                               LABEL="Full text"
                               MIMETYPE="application/pdf">
         <foxml:contentLocation REF="http://localhost/uploaded/theses/In-search/Fulltext.pdf"
                                TYPE="URL"/>
      </foxml:datastreamVersion>
   </foxml:datastream>
   <foxml:datastream CONTROL_GROUP="X" ID="RELS-EXT" STATE="A" VERSIONABLE="false">
      <foxml:datastreamVersion CREATED="2017-02-10T16:09:30.065Z"
                               ID="RELS-EXT.1"
                               LABEL="Relationships"
                               MIMETYPE="text/xml"
                               SIZE="973">
         <foxml:xmlContent>
            <rdf:RDF xmlns:esc-rel="http://www.escholar.manchester.ac.uk/esc/rel/v1#"
                     xmlns:rdf="http://www.w3.org/1999/02/22-rdf-syntax-ns#">
               <rdf:Description rdf:about="info:fedora/uk-ac-man-scw:ths0027">
                  <esc-rel:isBelongsTo rdf:resource="info:fedora/uk-ac-man-per:abcde18"/>
                  <esc-rel:wasBelongsToOrg rdf:resource="info:fedora/uk-ac-man-org:2"/>
                  <esc-rel:isCreatedBy rdf:resource="info:fedora/uk-ac-man-per:admin"/>
                  <esc-rel:isLastModifiedBy rdf:resource="info:fedora/uk-ac-man-per:admin"/>
                  <esc-rel:isDerivationOf rdf:resource="info:fedora/uk-ac-man-scw:base"/>
                  <esc-rel:isOfContenttype rdf:resource="info:fedora/uk-ac-man-con:15"/>
               </rdf:Description>
            </rdf:RDF>
         </foxml:xmlContent>
      </foxml:datastreamVersion>
   </foxml:datastream>
</foxml:digitalObject>
