<?xml version="1.0" encoding="UTF-8"?>
<foxml:digitalObject xmlns:foxml="info:fedora/fedora-system:def/foxml#"
                     xmlns:xsi="http://www.w3.org/2001/XMLSchema-instance"
                     VERSION="1.1"
                     xsi:schemaLocation="info:fedora/fedora-system:def/foxml# http://www.fedora.info/definitions/1/0/foxml1-1.xsd"
                     PID="uk-ac-man-scw:ma1080">
   <foxml:objectProperties>
      <foxml:property NAME="info:fedora/fedora-system:def/model#state" VALUE="Active"/>
   </foxml:objectProperties>
   <foxml:datastream CONTROL_GROUP="X" ID="MODS" STATE="A" VERSIONABLE="true">
      <foxml:datastreamVersion CREATED="2015-06-03T13:17:35.881Z"
                               ID="MODS.0"
                               LABEL="Metadata Object Description Schema record"
                               MIMETYPE="text/xml"
                               SIZE="3550">
         <foxml:xmlContent>
            <mods:mods xmlns:ev="http://www.w3.org/2001/xml-events"
                       xmlns:exf="http://www.exforms.org/exf/1-0"
                       xmlns:f="http://orbeon.org/oxf/xml/formatting"
                       xmlns:fr="http://orbeon.org/oxf/xml/form-runner"
                       xmlns:mods="http://www.loc.gov/mods/v3"
                       xmlns:widget="http://orbeon.org/oxf/xml/widget"
                       xmlns:xforms="http://www.w3.org/2002/xforms"
                       xmlns:xhtml="http://www.w3.org/1999/xhtml"
                       xmlns:xi="http://www.w3.org/2001/XInclude"
                       xmlns:xs="http://www.w3.org/2001/XMLSchema"
                       xmlns:xxforms="http://orbeon.org/oxf/xml/xforms"
                       xmlns:xxi="http://orbeon.org/oxf/xml/xinclude"
                       version="3.3">
               <mods:abstract/>
               <mods:genre authority="local" type="content-type">book</mods:genre>
               <mods:genre type="version">Authored book</mods:genre>
               <mods:identifier type="isbn">1 86058 293 1</mods:identifier>
               <mods:note type="authors">J Lawrence, Lin Li</mods:note>
               <mods:note type="editors"/>
               <mods:originInfo>
                  <mods:dateIssued encoding="iso8601">2001-01</mods:dateIssued>
                  <mods:publisher>Professional Engineering Publishing</mods:publisher>
                  <mods:edition>1</mods:edition>
               </mods:originInfo>
               <mods:recordInfo>
                  <mods:recordCreationDate encoding="iso8601">2015-06-03T13:17:35.881+01:00</mods:recordCreationDate>
                  <mods:recordContentSource>Manchester eScholar</mods:recordContentSource>
               </mods:recordInfo>
               <mods:relatedItem type="preceding">
                  <mods:identifier type="uri"/>
               </mods:relatedItem>
               <mods:titleInfo>
                  <mods:title>Laser Modification of the Wettability Characteristics of Engineering Materials</mods:title>
               </mods:titleInfo>
            </mods:mods>
         </foxml:xmlContent>
      </foxml:datastreamVersion>
   </foxml:datastream>
   <foxml:datastream CONTROL_GROUP="X" ID="RELS-EXT" STATE="A" VERSIONABLE="false">
      <foxml:datastreamVersion CREATED="2015-06-03T13:17:35.881Z"
                               ID="RELS-EXT.1"
                               LABEL="Relationships"
                               MIMETYPE="text/xml"
                               SIZE="920">
         <foxml:xmlContent>
            <rdf:RDF xmlns:esc-rel="http://www.escholar.manchester.ac.uk/esc/rel/v1#"
                     xmlns:rdf="http://www.w3.org/1999/02/22-rdf-syntax-ns#">
               <rdf:Description rdf:about="info:fedora/uk-ac-man-scw:ma1080">
                  <esc-rel:isBelongsTo rdf:resource="info:fedora/uk-ac-man-per:abcde39"/>
                  <esc-rel:isBelongsTo rdf:resource="info:fedora/uk-ac-man-per:39680"/>
                  <esc-rel:isBelongsToOrg rdf:resource="info:fedora/uk-ac-man-org:1"/>
                  <esc-rel:isBelongsToOrg rdf:resource="info:fedora/uk-ac-man-org:41"/>
                  <esc-rel:isBelongsToOrg rdf:resource="info:fedora/uk-ac-man-org:345"/>
                  <esc-rel:isCreatedBy rdf:resource="info:fedora/uk-ac-man-per:admin"/>
                  <esc-rel:isLastModifiedBy rdf:resource="info:fedora/uk-ac-man-per:admin"/>
                  <esc-rel:isDerivationOf rdf:resource="info:fedora/uk-ac-man-scw:base"/>
                  <esc-rel:isOfContenttype rdf:resource="info:fedora/uk-ac-man-con:4"/>
               </rdf:Description>
            </rdf:RDF>
         </foxml:xmlContent>
      </foxml:datastreamVersion>
   </foxml:datastream>
</foxml:digitalObject>
